d8/1.prinsipell/samenligning av delay ved n=16/offset channel 2_84ms, 100ms per div.csv

#Digilent WaveForms Oscilloscope Acquisition
#Device Name: Discovery2
#Serial Number: SN:210321B219AA
#Date Time: 2023-11-07 12:47:13.672
#Sample rate: 4000Hz
#Samples: 8000
#Trigger: Source: Channel 1 Type: Edge Condition: Rising Level: 0 V Hyst.: Auto HoldOff: 0 s
#Channel 1: Range: 1 V/div Offset: 0 V Attenuation: 1 X Sample Mode: Average
#Channel 2: Range: 1 V/div Offset: 0 V Attenuation: 1 X Shift: 84 ms Sample Mode: Average

Time (s),Channel 1 (V),Channel 2 (V)
-1.02025,3.309462813824946,3.289870704687578
-1.02,3.302110835398021,3.289870704687578
-1.01975,3.302110835398021,3.289870704687578
-1.0195,3.302110835398021,3.289870704687578
-1.01925,3.302110835398021,3.289870704687578
-1.019,3.302110835398021,3.289870704687578
-1.01875,3.302110835398021,3.289870704687578
-1.0185,3.302110835398021,3.289870704687578
-1.01825,3.302110835398021,3.289870704687387
-1.018,3.302110835398021,3.079364560666542
-1.01775,1.29502072484837,-0.03021742640662411
-1.0175,-0.009955445931161711,-0.01913815566882868
-1.01725,-0.009955445931755206,-0.01913815566882868
-1.017,-0.009955445931755206,-0.01913815566882868
-1.01675,-0.009955445931755206,-0.01913815566882868
-1.0165,-0.009955445931755206,-0.01913815566882868
-1.01625,-0.009955445931755206,-0.01913815566882868
-1.016,-0.009955445931755206,-0.01913815566882868
-1.01575,-0.009955445931755206,-0.01913815566882868
-1.0155,-0.009955445931755206,-0.01913815566882868
-1.01525,-0.009955445931755206,-0.01913815566882868
-1.015,-0.009955445931755206,-0.01913815566882868
-1.01475,-0.009955445931755206,-0.01913815566882868
-1.0145,-0.009955445931755206,-0.01913815566882868
-1.01425,-0.009955445931755206,-0.01913815566882868
-1.014,-0.009955445931755206,-0.01913815566882868
-1.01375,-0.009955445931755206,-0.01913815566882868
-1.0135,-0.009955445931755206,-0.01913815566882868
-1.01325,-0.009955445931755206,-0.01913815566882868
-1.013,-0.009955445931755206,-0.01913815566869097
-1.01275,-0.009955445931755206,0.2836952445004583
-1.0125,2.092710384168835,3.297256885179435
-1.01225,3.302110835397471,3.289870704687578
-1.012,3.302110835398021,3.289870704687578
-1.01175,3.302110835398021,3.289870704687578
-1.0115,3.302110835398021,3.289870704687578
-1.01125,3.302110835398021,3.289870704687578
-1.011,3.302110835398021,3.289870704687578
-1.01075,3.302110835398021,3.289870704687578
-1.0105,3.302110835398021,3.289870704687578
-1.01025,3.302110835398021,3.289870704687578
-1.01,3.302110835398021,3.289870704687578
-1.00975,3.302110835398021,3.289870704687578
-1.0095,3.302110835398021,3.289870704687578
-1.00925,3.302110835398021,3.289870704687578
-1.009,3.302110835398021,3.289870704687578
-1.00875,3.302110835398021,3.289870704687578
-1.0085,3.302110835398021,3.289870704687578
-1.00825,3.302110835398021,3.289870704687578
-1.008,3.302110835398021,3.289870704687578
-1.00775,3.302110835398021,3.289870704687395
-1.0075,3.302110835398021,2.887323867878178
-1.00725,1.107545274960866,-0.02652433616068559
-1.007,-0.009955445931246976,-0.01913815566882868
-1.00675,-0.009955445931755206,-0.01913815566882868
-1.0065,-0.009955445931755206,-0.01913815566882868
-1.00625,-0.009955445931755206,-0.01913815566882868
-1.006,-0.009955445931755206,-0.01913815566882868
-1.00575,-0.009955445931755206,-0.01913815566882868
-1.0055,-0.009955445931755206,-0.01913815566882868
-1.00525,-0.006279456718292636,-0.01913815566882868
-1.005,-0.006279456718292636,-0.01913815566882868
-1.00475,-0.006279456718292636,-0.01913815566882868
-1.0045,-0.009955445931755206,-0.01913815566882868
-1.00425,-0.009955445931755206,-0.01913815566882868
-1.004,-0.006279456718292636,-0.01913815566882868
-1.00375,-0.006279456718292636,-0.01913815566882868
-1.0035,-0.009955445931753534,-0.01913815566882868
-1.00325,-0.009955445931755206,-0.01913815566882868
-1.003,-0.009955445931755206,-0.01913815566882868
-1.00275,-0.009955445931755206,-0.01913815566882868
-1.0025,-0.009955445931755206,-0.01913815566882868
-1.00225,-0.009955445931755206,-0.01913815566882868
-1.002,-0.009955445931755206,-0.01913815566882868
-1.00175,-0.009955445931755206,-0.01913815566882868
-1.0015,-0.009955445931755206,-0.01913815566882868
-1.00125,-0.006279456718292636,-0.01913815566882868
-1.001,-0.009955445931753534,-0.01913815566882868
-1.00075,-0.006279456718292636,-0.01913815566882868
-1.0005,-0.009955445931755206,-0.01913815566882868
-1.00025,-0.009955445931755206,-0.01913815566882868
-1,-0.009955445931755206,-0.01913815566882868
-0.99975,-0.006279456718292636,-0.01913815566882868
-0.9994999999999999,-0.009955445931755206,-0.01913815566882868
-0.99925,-0.009955445931755206,-0.01913815566882868
-0.999,-0.009955445931755206,-0.01913815566882868
-0.99875,-0.009955445931755206,-0.01913815566882868
-0.9984999999999999,-0.009955445931755206,-0.01913815566882868
-0.99825,-0.006279456718292636,-0.01913815566882868
-0.998,-0.009955445931755206,-0.01913815566882868
-0.99775,-0.009955445931755206,-0.01913815566882868
-0.9974999999999999,-0.009955445931755206,-0.01913815566882868
-0.99725,-0.009955445931755206,-0.01913815566882868
-0.997,-0.006279456718292636,-0.01913815566882868
-0.99675,-0.009955445931755206,-0.01913815566882868
-0.9964999999999999,-0.006279456718292636,-0.01913815566882868
-0.99625,-0.009955445931755206,-0.01913815566882868
-0.996,-0.009955445931755206,-0.01913815566882868
-0.99575,-0.009955445931755206,-0.01913815566882868
-0.9954999999999999,-0.006279456718292636,-0.01913815566882868
-0.99525,-0.006279456718292636,-0.01913815566882868
-0.995,-0.009955445931755206,-0.01913815566882868
-0.99475,-0.009955445931755206,-0.01913815566882868
-0.9944999999999999,-0.009955445931755206,-0.01913815566882868
-0.99425,-0.009955445931755206,-0.01913815566882868
-0.994,-0.009955445931755206,-0.01913815566882868
-0.99375,-0.009955445931755206,-0.01913815566882868
-0.9934999999999999,-0.009955445931755206,-0.01913815566882868
-0.99325,-0.009955445931755206,-0.01913815566882868
-0.993,-0.009955445931755206,-0.01913815566882868
-0.99275,-0.009955445931755206,-0.01913815566882868
-0.9924999999999999,-0.009955445931755206,-0.01913815566882868
-0.99225,-0.009955445931755206,-0.01913815566882868
-0.992,-0.009955445931755206,-0.01913815566882868
-0.99175,-0.009955445931755206,-0.01913815566882868
-0.9914999999999999,-0.009955445931755206,-0.01913815566882868
-0.99125,-0.009955445931755206,-0.01913815566882868
-0.991,-0.009955445931755206,-0.01913815566882868
-0.99075,-0.009955445931755206,-0.01913815566882868
-0.9904999999999999,-0.009955445931755206,-0.01913815566882868
-0.99025,-0.009955445931755206,-0.01913815566882868
-0.99,-0.009955445931755206,-0.01913815566882868
-0.98975,-0.009955445931755206,-0.01913815566882868
-0.9894999999999999,-0.006279456718292636,-0.01913815566882868
-0.98925,-0.009955445931755206,-0.01913815566555884
-0.989,0.8649299868723367,2.377677413943251
-0.98875,3.305786824611484,3.289870704687578
-0.9885,3.302110835398021,3.289870704687578
-0.98825,3.302110835398021,3.289870704687578
-0.988,3.302110835398021,3.289870704687578
-0.98775,3.302110835398021,3.289870704687578
-0.9875,3.302110835398021,3.289870704687578
-0.98725,3.302110835398021,3.289870704687578
-0.987,3.302110835398021,3.289870704687578
-0.98675,3.302110835398021,3.289870704687578
-0.9865,3.302110835398021,3.289870704687578
-0.98625,3.302110835398021,3.289870704687578
-0.986,3.302110835398021,3.289870704687578
-0.98575,3.302110835398021,3.289870704687578
-0.9855,3.302110835398021,3.289870704687578
-0.98525,3.302110835398021,3.289870704687578
-0.985,3.302110835398021,3.289870704687578
-0.98475,3.302110835398021,3.289870704687578
-0.9845,3.302110835398021,3.289870704687578
-0.98425,3.302110835398021,3.289870704687578
-0.984,3.302110835398021,3.289870704684182
-0.98375,2.335325672257365,0.8007278789276604
-0.9835,-0.009955445931755206,-0.01913815566882868
-0.98325,-0.009955445931755206,-0.01913815566882868
-0.983,-0.009955445931755206,-0.01913815566882868
-0.98275,-0.009955445931755206,-0.01913815566882868
-0.9825,-0.009955445931755206,-0.01913815566882868
-0.98225,-0.009955445931755206,-0.01913815566882868
-0.982,-0.009955445931755206,-0.01913815566882868
-0.98175,-0.009955445931755206,-0.01913815566882868
-0.9815,-0.009955445931755206,-0.01913815566882868
-0.98125,-0.009955445931755206,-0.01913815566882868
-0.981,-0.009955445931755206,-0.01913815566882868
-0.98075,-0.009955445931755206,-0.01913815566882868
-0.9805,-0.009955445931755206,-0.01913815566882868
-0.98025,-0.009955445931755206,-0.01913815566882868
-0.98,-0.009955445931755206,-0.01913815566882868
-0.97975,-0.009955445931755206,-0.01913815566882868
-0.9795,-0.009955445931755206,-0.01913815566882868
-0.97925,-0.009955445931755206,-0.01913815566882868
-0.979,-0.009955445931755206,-0.01913815566882868
-0.97875,-0.009955445931755206,-0.01913815566647749
-0.9785,1.052405436758928,2.566025016485272
-0.97825,3.302110835398021,3.289870704687578
-0.978,3.302110835398021,3.289870704687578
-0.97775,3.302110835398021,3.289870704687578
-0.9775,3.302110835398021,3.289870704687578
-0.97725,3.302110835398021,3.289870704687578
-0.977,3.302110835398021,3.289870704687578
-0.97675,3.302110835398021,3.289870704687578
-0.9765,3.302110835398021,3.289870704687578
-0.97625,3.302110835398021,3.289870704686243
-0.976,3.302110835398021,2.311201789512024
-0.97575,0.5340909576607052,-0.01913815566882868
-0.9755,-0.009955445931755206,-0.01913815566882868
-0.97525,-0.009955445931755206,-0.01913815566882868
-0.975,-0.009955445931755206,-0.01913815566882868
-0.97475,-0.009955445931755206,-0.01913815566882868
-0.9745,-0.009955445931755206,-0.01913815566882868
-0.9742499999999999,-0.009955445931755206,-0.01913815566882868
-0.974,-0.009955445931755206,-0.01913815566882868
-0.97375,-0.009955445931755206,-0.01913815566882868
-0.9735,-0.009955445931755206,-0.01913815566882868
-0.9732499999999999,-0.009955445931755206,-0.01913815566882868
-0.973,-0.009955445931755206,-0.01913815566882868
-0.97275,-0.009955445931755206,-0.01913815566882868
-0.9725,-0.009955445931755206,-0.01913815566882868
-0.9722499999999999,-0.009955445931755206,-0.01913815566882868
-0.972,-0.009955445931755206,-0.01913815566882868
-0.97175,-0.009955445931755206,-0.01913815566882868
-0.9715,-0.009955445931755206,-0.01913815566882868
-0.9712499999999999,-0.009955445931755206,-0.01913815566882868
-0.971,-0.009955445931755206,-0.01913815566736758
-0.97075,-0.009955445931755206,1.051858015654936
-0.9705,2.853640151355588,3.289870704687578
-0.9702499999999999,3.302110835398021,3.289870704687578
-0.97,3.302110835398021,3.289870704687578
-0.96975,3.302110835398021,3.289870704687578
-0.9695,3.302110835398021,3.289870704687578
-0.9692499999999999,3.302110835398021,3.289870704687578
-0.969,3.302110835398021,3.289870704687578
-0.96875,3.302110835398021,3.289870704687578
-0.9685,3.302110835398021,3.289870704687578
-0.9682499999999999,3.302110835398021,3.289870704687578
-0.968,3.302110835398021,3.289870704687578
-0.96775,3.302110835398021,3.289870704687578
-0.9675,3.302110835398021,3.289870704687578
-0.9672499999999999,3.302110835398021,3.289870704687578
-0.967,3.302110835398021,3.289870704687578
-0.96675,3.302110835398021,3.289870704687578
-0.9665,3.302110835398021,3.289870704687578
-0.9662499999999999,3.302110835398021,3.289870704687578
-0.966,3.302110835398021,3.289870704687578
-0.96575,3.302110835398021,3.289870704687578
-0.9655,3.302110835398021,3.289870704687578
-0.9652499999999999,3.302110835398021,3.289870704687578
-0.965,3.302110835398021,3.289870704687578
-0.96475,3.302110835398021,3.289870704687578
-0.9645,3.302110835398021,3.289870704687578
-0.9642499999999999,3.302110835398021,3.289870704687578
-0.964,3.302110835398021,3.289870704687578
-0.96375,3.302110835398021,3.289870704687578
-0.9635,3.302110835398021,3.289870704687578
-0.9632499999999999,3.302110835398021,3.289870704687578
-0.963,3.302110835398021,3.289870704687578
-0.96275,3.302110835398021,3.289870704687578
-0.9625,3.302110835398021,3.289870704687578
-0.9622499999999999,3.302110835398021,3.289870704687578
-0.962,3.302110835398021,3.289870704687578
-0.96175,3.302110835398021,3.289870704687578
-0.9615,3.302110835398021,3.289870704687578
-0.9612499999999999,3.302110835398021,3.289870704687578
-0.961,3.302110835398021,3.289870704687578
-0.96075,3.302110835398021,3.289870704687578
-0.9605,3.302110835398021,3.289870704687578
-0.9602499999999999,3.302110835398021,3.289870704687578
-0.96,3.302110835398021,3.289870704687578
-0.95975,3.302110835398021,3.289870704687578
-0.9595,3.302110835398021,3.289870704687578
-0.9592499999999999,3.302110835398021,3.289870704687578
-0.959,3.302110835398021,3.289870704687578
-0.95875,3.302110835398021,3.289870704687578
-0.9585,3.302110835398021,3.289870704687578
-0.9582499999999999,3.302110835398021,3.289870704687578
-0.958,3.302110835398021,3.289870704687578
-0.95775,3.302110835398021,3.289870704683532
-0.9575,1.857447074507231,0.3243192372026735
-0.95725,-0.009955445931755206,-0.01913815566882868
-0.957,-0.009955445931755206,-0.01913815566882868
-0.95675,-0.009955445931755206,-0.01913815566882868
-0.9565,-0.009955445931755206,-0.01913815566882868
-0.95625,-0.009955445931755206,-0.01913815566882868
-0.956,-0.009955445931755206,-0.01913815566882868
-0.95575,-0.009955445931755206,-0.01913815566882868
-0.9555,-0.009955445931755206,-0.01913815566882868
-0.95525,-0.009955445931755206,-0.01913815566882868
-0.955,-0.009955445931755206,-0.01913815566882868
-0.95475,-0.009955445931755206,-0.01913815566882868
-0.9545,-0.009955445931755206,-0.01913815566882868
-0.95425,-0.009955445931755206,-0.01913815566882868
-0.954,-0.009955445931755206,-0.01913815566882868
-0.95375,-0.009955445931755206,-0.01913815566882868
-0.9535,-0.009955445931755206,-0.01913815566882868
-0.95325,-0.009955445931755206,-0.01913815566882868
-0.953,-0.009955445931755206,-0.01913815566882868
-0.95275,-0.009955445931755206,-0.01913815566882868
-0.9525,-0.009955445931755206,-0.01913815566882868
-0.95225,-0.009955445931755206,-0.01913815566882868
-0.952,-0.009955445931755206,-0.01913815566882868
-0.95175,-0.009955445931755206,-0.01913815566882868
-0.9515,-0.009955445931755206,-0.01913815566882868
-0.95125,-0.009955445931755206,-0.01913815566882868
-0.951,-0.009955445931755206,-0.01913815566882868
-0.95075,-0.009955445931755206,-0.01913815566882868
-0.9505,-0.009955445931755206,-0.01913815566882868
-0.95025,-0.009955445931755206,-0.01913815566882868
-0.95,-0.009955445931755206,-0.01913815566882868
-0.94975,-0.009955445931755206,-0.01913815566882868
-0.9495,-0.009955445931755206,-0.01913815566882868
-0.94925,-0.009955445931755206,-0.01913815566882868
-0.949,-0.009955445931755206,-0.01913815566882868
-0.94875,-0.009955445931755206,-0.01913815566882868
-0.9485,-0.009955445931755206,-0.01913815566882868
-0.94825,-0.009955445931755206,-0.01913815566882868
-0.948,-0.009955445931755206,-0.01913815566882868
-0.94775,-0.009955445931755206,-0.01913815566882868
-0.9475,-0.009955445931755206,-0.01913815566882868
-0.94725,-0.009955445931755206,-0.01913815566882868
-0.947,-0.009955445931755206,-0.01913815566882868
-0.94675,-0.009955445931755206,-0.01913815566882868
-0.9465,-0.009955445931755206,-0.01913815566882868
-0.94625,-0.006279456718292636,-0.01913815566882868
-0.946,-0.006279456718292636,-0.01913815566882868
-0.94575,-0.009955445931755206,-0.01913815566882868
-0.9455,-0.009955445931755206,-0.01913815566882868
-0.94525,-0.009955445931755206,-0.01913815566882868
-0.945,-0.009955445931755206,-0.01913815566882868
-0.94475,-0.009955445931755206,-0.01913815566882868
-0.9445,-0.009955445931755206,-0.01913815566882868
-0.94425,-0.009955445931755206,-0.01913815566882868
-0.944,-0.006279456718292636,-0.01913815566882868
-0.94375,-0.009955445931755206,-0.01913815566882868
-0.9435,-0.009955445931755206,-0.01913815566882868
-0.94325,-0.009955445931755206,-0.01913815566882868
-0.9429999999999999,-0.009955445931755206,-0.01913815566882868
-0.94275,-0.009955445931755206,-0.01913815566882868
-0.9425,-0.009955445931755206,-0.01913815566882868
-0.94225,-0.009955445931755206,-0.01913815566882868
-0.9419999999999999,-0.009955445931755206,-0.01913815566882868
-0.94175,-0.009955445931755206,-0.01913815566882868
-0.9415,-0.009955445931755206,-0.01913815566882868
-0.94125,-0.009955445931755206,-0.01913815566882868
-0.9409999999999999,-0.009955445931755206,-0.01913815566882868
-0.94075,-0.009955445931755206,-0.01913815566882868
-0.9405,-0.009955445931755206,-0.01913815566882868
-0.94025,-0.009955445931755206,-0.01913815566882868
-0.9399999999999999,-0.009955445931755206,-0.01913815566882868
-0.93975,-0.009955445931755206,-0.01913815566882868
-0.9395,-0.009955445931755206,-0.01913815566882868
-0.93925,-0.009955445931755206,-0.01913815566882868
-0.9389999999999999,-0.009955445931755206,-0.01913815566882868
-0.93875,-0.009955445931755206,-0.01913815566882868
-0.9385,-0.009955445931755206,-0.01913815566882868
-0.93825,-0.009955445931755206,-0.01913815566882868
-0.9379999999999999,-0.009955445931755206,-0.01913815566882868
-0.93775,-0.009955445931755206,-0.01913815566882868
-0.9375,-0.009955445931755206,-0.01913815566882868
-0.93725,-0.009955445931755206,-0.01913815566882868
-0.9369999999999999,-0.009955445931755206,-0.01913815566879845
-0.93675,-0.009955445931755206,0.003020385811271432
-0.9365,1.817011193159143,3.300949975425364
-0.93625,3.302110835398021,3.289870704687578
-0.9359999999999999,3.302110835398021,3.289870704687578
-0.93575,3.302110835398021,3.289870704687578
-0.9355,3.302110835398021,3.289870704687578
-0.93525,3.302110835398021,3.289870704687578
-0.9349999999999999,3.302110835398021,3.289870704687578
-0.93475,3.302110835398021,3.289870704687578
-0.9345,3.302110835398021,3.289870704687578
-0.93425,3.302110835398021,3.289870704685996
-0.9339999999999999,3.092579450230655,1.550425198850763
-0.93375,-0.01730742435868035,-0.01913815566882868
-0.9335,-0.009955445931755206,-0.01913815566882868
-0.93325,-0.009955445931755206,-0.01913815566882868
-0.9329999999999999,-0.009955445931755206,-0.01913815566882868
-0.93275,-0.009955445931755206,-0.01913815566882868
-0.9325,-0.009955445931755206,-0.01913815566882868
-0.93225,-0.009955445931755206,-0.01913815566882868
-0.9319999999999999,-0.009955445931755206,-0.01913815566882868
-0.93175,-0.009955445931755206,-0.01913815566866746
-0.9315,-0.009955445931755206,0.09904073220541117
-0.93125,1.912586912709169,3.300949975425369
-0.9309999999999999,3.302110835398021,3.289870704687578
-0.93075,3.302110835398021,3.289870704687578
-0.9305,3.302110835398021,3.289870704687578
-0.93025,3.302110835398021,3.289870704687578
-0.9299999999999999,3.302110835398021,3.289870704687578
-0.92975,3.302110835398021,3.289870704687578
-0.9295,3.302110835398021,3.289870704687578
-0.92925,3.302110835398021,3.289870704687578
-0.9289999999999999,3.302110835398021,3.289870704687578
-0.92875,3.302110835398021,3.289870704687578
-0.9285,3.302110835398021,3.289870704687578
-0.92825,3.302110835398021,3.289870704687578
-0.9279999999999999,3.302110835398021,3.289870704687578
-0.92775,3.302110835398021,3.289870704687578
-0.9275,3.302110835398021,3.289870704687578
-0.92725,3.302110835398021,3.289870704687578
-0.9269999999999999,3.302110835398021,3.289870704687578
-0.92675,3.302110835398021,3.289870704687578
-0.9265,3.302110835398021,3.289870704687281
-0.92625,3.302110835398021,3.071978380174681
-0.926,1.287668746420532,-0.03021742640661907
-0.92575,-0.009955445931755206,-0.01913815566882868
-0.9255,-0.009955445931755206,-0.01913815566882868
-0.92525,-0.009955445931755206,-0.01913815566882868
-0.925,-0.009955445931755206,-0.01913815566882868
-0.92475,-0.009955445931755206,-0.01913815566882868
-0.9245,-0.009955445931755206,-0.01913815566882868
-0.92425,-0.009955445931755206,-0.01913815566882868
-0.924,-0.009955445931755206,-0.01913815566882868
-0.92375,-0.009955445931755206,-0.0191381556661987
-0.9235,0.3907273783356651,1.908654952710337
-0.92325,3.309462813824946,3.289870704687578
-0.923,3.302110835398021,3.289870704687578
-0.92275,3.302110835398021,3.289870704687578
-0.9225,3.302110835398021,3.289870704687578
