d8/1.prinsipell/samenligning av delay ved n=16/pmod 1.csv

#Digilent WaveForms Oscilloscope Acquisition
#Device Name: Discovery2
#Serial Number: SN:210321B219AA
#Date Time: 2023-11-07 12:28:09.353
#Sample rate: 40000Hz
#Samples: 8192
#Trigger: Source: Channel 1 Type: Edge Condition: Rising Level: 0 V Hyst.: Auto HoldOff: 0 s
#Channel 1: Range: 1 V/div Offset: 0 V Attenuation: 1 X Sample Mode: Average

Time (s),Channel 1 (V)
-0.1022,3.291082867757634
-0.102175,3.287406878544171
-0.10215,3.287406878544171
-0.102125,3.287406878544171
-0.1021,3.287406878544171
-0.102075,3.287406878544171
-0.10205,3.287406878544171
-0.102025,3.287406878544171
-0.102,3.287406878544171
-0.101975,3.287406878544171
-0.10195,3.287406878544171
-0.101925,3.287406878544171
-0.1019,3.287406878544171
-0.101875,3.287406878544171
-0.10185,1.394272433610947
-0.101825,-0.06877127334715634
-0.1018,-0.0503913272798368
-0.101775,-0.0356873704259932
-0.10175,-0.02833539199906806
-0.101725,-0.02833539199906806
-0.1017,-0.02465940278560549
-0.101675,-0.02465940278560549
-0.10165,-0.02465940278560549
-0.101625,-0.02465940278560549
-0.1016,-0.02465940278560549
-0.101575,-0.02465940278560549
-0.10155,-0.02465940278560549
-0.101525,-0.02465940278560549
-0.1015,-0.02465940278560549
-0.101475,-0.02465940278560549
-0.10145,-0.02465940278560549
-0.101425,-0.02465940278560549
-0.1014,-0.02465940278560549
-0.101375,-0.02465940278560549
-0.10135,-0.02465940278560549
-0.101325,-0.02465940278560549
-0.1013,-0.02465940278560549
-0.101275,-0.02465940278560549
-0.10125,-0.02465940278560549
-0.101225,-0.02465940278560549
-0.1012,-0.02465940278560549
-0.101175,-0.02465940278560549
-0.10115,-0.02465940278560549
-0.101125,-0.02465940278560549
-0.1011,-0.02465940278560549
-0.101075,-0.02465940278560549
-0.10105,-0.02465940278560549
-0.101025,-0.02465940278560549
-0.101,-0.02465940278560549
-0.100975,-0.02465940278560549
-0.10095,-0.02465940278560549
-0.100925,-0.02465940278560549
-0.1009,-0.02465940278560549
-0.100875,-0.02465940278560549
-0.10085,-0.02465940278560549
-0.100825,-0.02465940278560549
-0.1008,-0.02465940278560549
-0.100775,-0.02465940278560549
-0.10075,-0.02465940278560549
-0.100725,-0.02465940278560549
-0.1007,-0.02465940278560549
-0.100675,-0.02465940278560549
-0.10065,-0.02465940278560549
-0.100625,-0.02465940278560549
-0.1006,-0.02465940278560549
-0.100575,-0.02465940278560549
-0.10055,-0.02465940278560549
-0.100525,-0.02465940278560549
-0.1005,-0.02465940278560549
-0.100475,-0.02465940278560549
-0.10045,-0.02465940278560549
-0.100425,-0.02465940278560549
-0.1004,-0.02465940278560549
-0.100375,-0.02465940278560549
-0.10035,-0.02465940278560549
-0.100325,-0.02465940278560549
-0.1003,-0.02465940278560549
-0.100275,-0.02465940278560549
-0.10025,-0.02465940278560549
-0.100225,-0.02465940278560549
-0.1002,-0.02465940278560549
-0.100175,-0.02465940278560549
-0.10015,-0.02465940278560549
-0.100125,-0.02465940278560549
-0.1001,-0.02465940278560549
-0.100075,-0.02465940278560549
-0.10005,-0.02465940278560549
-0.100025,-0.02465940278560549
-0.09999999999999999,-0.02465940278560549
-0.09997499999999999,-0.02465940278560549
-0.09995,-0.02465940278560549
-0.099925,-0.02465940278560549
-0.09989999999999999,-0.02465940278560549
-0.09987499999999999,-0.02465940278560549
-0.09984999999999999,-0.02465940278560549
-0.099825,-0.02465940278560549
-0.0998,-0.02465940278560549
-0.09977499999999999,-0.02465940278560549
-0.09974999999999999,-0.02465940278560549
-0.09972499999999999,-0.02465940278560549
-0.0997,-0.02098341357214292
-0.099675,-0.02465940278560549
-0.09964999999999999,-0.02465940278560549
-0.09962499999999999,-0.02465940278560549
-0.09959999999999999,-0.02465940278560549
-0.099575,-0.02098341357214292
-0.09955,-0.02465940278560549
-0.09952499999999999,-0.02465940278560549
-0.09949999999999999,-0.02465940278560549
-0.09947499999999999,-0.02465940278560549
-0.09945,-0.02465940278560549
-0.099425,-0.02465940278560549
-0.09939999999999999,-0.02465940278560716
-0.09937499999999999,-0.02833539199906806
-0.09934999999999999,-0.02465940278560549
-0.099325,-0.02465940278560549
-0.0993,-0.02465940278560549
-0.09927499999999999,-0.02465940278560549
-0.09924999999999999,-0.02465940278560549
-0.09922499999999999,-0.02465940278560549
-0.0992,-0.02465940278560549
-0.099175,-0.02465940278560549
-0.09914999999999999,-0.02465940278560549
-0.09912499999999999,-0.02465940278560549
-0.09909999999999999,-0.02465940278560549
-0.099075,-0.02465940278560549
-0.09905,-0.02465940278560549
-0.09902499999999999,-0.02465940278560549
-0.09899999999999999,-0.02465940278560549
-0.09897499999999999,-0.02465940278560549
-0.09895,-0.02465940278560549
-0.098925,-0.02465940278560549
-0.09889999999999999,-0.02465940278560549
-0.09887499999999999,-0.02465940278560549
-0.09884999999999999,-0.02465940278560549
-0.098825,-0.02465940278560549
-0.0988,-0.02465940278560549
-0.09877499999999999,-0.02465940278560549
-0.09874999999999999,-0.02465940278560549
-0.09872499999999999,-0.02465940278560549
-0.0987,-0.02465940278560549
-0.098675,-0.02465940278560549
-0.09864999999999999,-0.02465940278560549
-0.09862499999999999,-0.02465940278560549
-0.09859999999999999,-0.02465940278560549
-0.098575,-0.02465940278560549
-0.09855,-0.02465940278560549
-0.09852499999999999,-0.02465940278560549
-0.09849999999999999,-0.02465940278560549
-0.09847499999999999,-0.02465940278560549
-0.09845,-0.02465940278560549
-0.098425,-0.02465940278560549
-0.09839999999999999,-0.02465940278560549
-0.09837499999999999,-0.02465940278560549
-0.09834999999999999,-0.02465940278560549
-0.098325,-0.02465940278560549
-0.0983,-0.02465940278560549
-0.09827499999999999,-0.02465940278560716
-0.09824999999999999,-0.02833539199906806
-0.09822499999999999,-0.02465940278560549
-0.0982,-0.02465940278560549
-0.098175,-0.02465940278560549
-0.09815,-0.02465940278560549
-0.09812499999999999,-0.02465940278560549
-0.09809999999999999,-0.02465940278560549
-0.098075,-0.02465940278560549
-0.09805,-0.02465940278560549
-0.098025,-0.02465940278560549
-0.09799999999999999,-0.02465940278560549
-0.09797499999999999,-0.02465940278560549
-0.09795,-0.02465940278560549
-0.097925,-0.02465940278560549
-0.0979,-0.02465940278560549
-0.09787499999999999,-0.02465940278560549
-0.09784999999999999,-0.02465940278560549
-0.097825,-0.02465940278560549
-0.0978,-0.02465940278560549
-0.097775,-0.02465940278560549
-0.09774999999999999,-0.02833539199906806
-0.09772499999999999,-0.02465940278560549
-0.0977,-0.02465940278560549
-0.097675,-0.02465940278560549
-0.09765,-0.02465940278560549
-0.09762499999999999,-0.02465940278560549
-0.09759999999999999,-0.02465940278560549
-0.097575,-0.02465940278560549
-0.09755,-0.02465940278560549
-0.097525,-0.02465940278560549
-0.09749999999999999,-0.02465940278560549
-0.09747499999999999,-0.02465940278560549
-0.09744999999999999,-0.02465940278560549
-0.097425,-0.02465940278560549
-0.0974,-0.02465940278560549
-0.09737499999999999,-0.02465940278560549
-0.09734999999999999,-0.02465940278560549
-0.09732499999999999,-0.02465940278560549
-0.0973,-0.02465940278560549
-0.097275,-0.02465940278560549
-0.09724999999999999,-0.02465940278560549
-0.09722499999999999,-0.02465940278560549
-0.09719999999999999,-0.02465940278560549
-0.097175,-0.02465940278560549
-0.09715,-0.02465940278560549
-0.09712499999999999,-0.02465940278560549
-0.09709999999999999,-0.02465940278560549
-0.09707499999999999,-0.02465940278560549
-0.09705,-0.02465940278560549
-0.097025,-0.02465940278560549
-0.09699999999999999,-0.02465940278560549
-0.09697499999999999,-0.02465940278560549
-0.09694999999999999,-0.02465940278560549
-0.096925,-0.02465940278560549
-0.0969,-0.02465940278560549
-0.09687499999999999,-0.02465940278560549
-0.09684999999999999,-0.02465940278560549
-0.09682499999999999,-0.02465940278560549
-0.0968,-0.02465940278560549
-0.096775,-0.02465940278560549
-0.09674999999999999,-0.02465940278560549
-0.09672499999999999,-0.02465940278560549
-0.09669999999999999,-0.02465940278560549
-0.096675,-0.02465940278560549
-0.09665,-0.02465940278560549
-0.09662499999999999,-0.02465940278560549
-0.09659999999999999,2.831584216074812
-0.09657499999999999,3.327842759892259
-0.09655,3.309462813824946
-0.096525,3.298434846184559
-0.09649999999999999,3.291082867757634
-0.09647499999999999,3.291082867757634
-0.09644999999999999,3.291082867757634
-0.096425,3.291082867757634
-0.0964,3.287406878544171
-0.09637499999999999,3.291082867757632
-0.09634999999999999,3.287406878544171
-0.09632499999999999,3.291082867757634
-0.0963,3.291082867757634
-0.096275,3.291082867757634
-0.09624999999999999,3.291082867757634
-0.09622499999999999,3.291082867757634
-0.09619999999999999,3.287406878544171
-0.096175,3.291082867757634
-0.09615,3.287406878544171
-0.09612499999999999,3.287406878544171
-0.09609999999999999,3.287406878544171
-0.09607499999999999,3.287406878544171
-0.09605,3.287406878544171
-0.096025,3.287406878544171
-0.09599999999999999,3.287406878544171
-0.09597499999999999,3.287406878544171
-0.09594999999999999,3.291082867757634
-0.095925,3.287406878544171
-0.0959,3.287406878544171
-0.09587499999999999,3.287406878544173
-0.09584999999999999,3.291082867757634
-0.09582499999999999,3.291082867757634
-0.0958,3.287406878544171
-0.095775,3.291082867757634
-0.09574999999999999,3.287406878544171
-0.09572499999999999,3.287406878544171
-0.09569999999999999,3.287406878544171
-0.095675,3.287406878544171
-0.09565,3.287406878544171
-0.09562499999999999,3.287406878544171
-0.09559999999999999,3.287406878544171
-0.09557499999999999,3.291082867757634
-0.09555,3.287406878544171
-0.095525,3.287406878544171
-0.09549999999999999,3.291082867757632
-0.09547499999999999,3.287406878544171
-0.09544999999999999,3.287406878544171
-0.095425,3.287406878544171
-0.0954,3.287406878544171
-0.09537499999999999,3.291082867757632
-0.09534999999999999,3.287406878544171
-0.09532499999999999,3.287406878544171
-0.0953,3.291082867757634
-0.095275,3.287406878544171
-0.09524999999999999,3.287406878544171
-0.09522499999999999,3.287406878544171
-0.09519999999999999,3.291082867757634
-0.095175,3.287406878544171
-0.09515,3.287406878544171
-0.09512499999999999,3.291082867757634
-0.09509999999999999,3.291082867757634
-0.09507499999999999,3.291082867757634
-0.09505,3.287406878544171
-0.095025,3.287406878544171
-0.095,3.287406878544171
-0.09497499999999999,3.287406878544171
-0.09494999999999999,3.287406878544171
-0.094925,3.287406878544171
-0.0949,3.287406878544171
-0.094875,3.287406878544171
-0.09484999999999999,3.287406878544171
-0.09482499999999999,3.287406878544171
-0.0948,3.287406878544171
-0.094775,3.287406878544171
-0.09475,3.287406878544171
-0.09472499999999999,3.287406878544171
-0.09469999999999999,3.291082867757634
-0.094675,3.287406878544171
-0.09465,3.291082867757634
-0.094625,3.287406878544173
-0.09459999999999999,3.287406878544171
-0.09457499999999999,3.291082867757634
-0.09455,3.291082867757634
-0.094525,3.291082867757634
-0.0945,3.287406878544173
-0.09447499999999999,3.291082867757634
-0.09444999999999999,3.291082867757634
-0.094425,3.291082867757634
-0.0944,3.291082867757634
-0.094375,3.287406878544173
-0.09434999999999999,3.291082867757634
-0.09432499999999999,3.291082867757634
-0.09429999999999999,3.287406878544171
-0.094275,3.291082867757634
-0.09425,3.291082867757634
-0.09422499999999999,3.287406878544171
-0.09419999999999999,3.291082867757634
-0.09417499999999999,3.287406878544171
-0.09415,3.287406878544171
-0.094125,3.287406878544171
-0.09409999999999999,3.287406878544171
-0.09407499999999999,3.287406878544171
-0.09404999999999999,3.291082867757634
-0.094025,3.287406878544171
-0.094,3.287406878544171
-0.09397499999999999,-0.05039132727984349
-0.09394999999999999,-0.0614192949202312
-0.09392499999999999,-0.04303934885291835
-0.0939,-0.03201138121253063
-0.093875,-0.02833539199906973
-0.09384999999999999,-0.02465940278560549
-0.09382499999999999,-0.02465940278560549
-0.09379999999999999,-0.02465940278560549
-0.093775,-0.02465940278560549
-0.09375,-0.02465940278560549
-0.09372499999999999,-0.02465940278560549
-0.09369999999999999,-0.02465940278560549
-0.09367499999999999,-0.02465940278560549
-0.09365,-0.02098341357214292
-0.093625,-0.02465940278560549
-0.09359999999999999,-0.02465940278560549
-0.09357499999999999,-0.02098341357214292
-0.09354999999999999,-0.02465940278560549
-0.093525,-0.02465940278560549
-0.0935,-0.02465940278560549
-0.09347499999999999,-0.02465940278560549
-0.09344999999999999,-0.02465940278560549
-0.09342499999999999,-0.02465940278560549
-0.0934,-0.02465940278560549
-0.093375,-0.02465940278560549
-0.09334999999999999,-0.02465940278560549
-0.09332499999999999,-0.02465940278560549
-0.09329999999999999,-0.02465940278560549
-0.093275,-0.02465940278560549
-0.09325,-0.02465940278560549
-0.09322499999999999,-0.02465940278560549
-0.09319999999999999,-0.02465940278560549
-0.09317499999999999,-0.02465940278560549
-0.09315,-0.02465940278560549
-0.093125,-0.02465940278560549
-0.09309999999999999,-0.02465940278560382
-0.09307499999999999,-0.02098341357214292
-0.09304999999999999,-0.02465940278560549
-0.093025,-0.02465940278560549
-0.093,-0.02098341357214292
-0.09297499999999999,-0.02465940278560549
-0.09294999999999999,-0.02465940278560549
-0.09292499999999999,-0.02465940278560549
-0.0929,-0.02465940278560549
-0.092875,-0.02465940278560549
-0.09284999999999999,-0.02098341357214459
-0.09282499999999999,-0.02465940278560549
-0.09279999999999999,-0.02465940278560549
-0.092775,-0.02098341357214292
-0.09275,-0.02465940278560549
-0.09272499999999999,-0.02465940278560549
-0.09269999999999999,-0.02465940278560549
-0.09267499999999999,-0.02465940278560549
-0.09265,-0.02465940278560549
-0.092625,-0.02465940278560549
-0.09259999999999999,-0.02465940278560549
-0.09257499999999999,-0.02465940278560549
-0.09254999999999999,-0.02465940278560549
-0.092525,-0.02465940278560549
-0.0925,-0.02465940278560549
-0.09247499999999999,-0.02465940278560549
-0.09244999999999999,-0.02465940278560549
-0.09242499999999999,-0.02098341357214292
-0.0924,-0.02098341357214292
-0.092375,-0.02465940278560549
-0.09234999999999999,-0.02465940278560549
-0.09232499999999999,-0.02465940278560549
-0.09229999999999999,-0.02465940278560549
-0.092275,-0.02465940278560549
-0.09225,-0.02465940278560549
-0.09222499999999999,-0.02465940278560549
-0.09219999999999999,-0.02465940278560549
-0.09217499999999999,-0.02465940278560549
-0.09215,-0.02465940278560549
-0.092125,-0.02465940278560549
-0.09209999999999999,-0.02465940278560549
-0.09207499999999999,-0.02465940278560549
-0.09204999999999999,-0.02465940278560549
-0.092025,-0.02465940278560549
-0.092,-0.02465940278560549
-0.091975,-0.02098341357214459
-0.09194999999999999,-0.02465940278560549
-0.09192499999999999,-0.02465940278560549
-0.0919,-0.02465940278560549
-0.091875,-0.02465940278560549
-0.09185,-0.02465940278560549
-0.09182499999999999,-0.02465940278560549
-0.09179999999999999,-0.02465940278560549
-0.091775,-0.02465940278560549
-0.09175,-0.02465940278560549
-0.091725,-0.02465940278560549
-0.09169999999999999,-0.02465940278560549
-0.09167499999999999,-0.02465940278560549
-0.09165,-0.02465940278560549
-0.091625,-0.02098341357214292
-0.0916,-0.02465940278560382
-0.09157499999999999,-0.02465940278560549
-0.09154999999999999,-0.02465940278560549
-0.091525,-0.02098341357214292
-0.0915,-0.02465940278560549
-0.091475,-0.02465940278560549
-0.09144999999999999,-0.02098341357214292
-0.09142499999999999,-0.02465940278560549
-0.0914,-0.02465940278560549
-0.091375,0.4311632596837534
-0.09135,3.338870727531325
-0.09132499999999999,3.320490781465334
-0.09129999999999999,3.305786824611484
-0.091275,3.294758856971096
-0.09125,3.291082867757634
-0.091225,3.287406878544173
-0.09119999999999999,3.287406878544171
-0.09117499999999999,3.287406878544171
-0.09114999999999999,3.287406878544171
-0.091125,3.287406878544171
-0.0911,3.287406878544171
-0.09107499999999999,3.287406878544171
-0.09104999999999999,3.291082867757634
-0.09102499999999999,3.287406878544171
-0.091,3.291082867757634
-0.090975,3.287406878544173
-0.09094999999999999,3.287406878544171
-0.09092499999999999,3.287406878544171
-0.09089999999999999,3.287406878544171
-0.090875,3.287406878544171
-0.09085,3.287406878544171
-0.09082499999999999,3.287406878544171
-0.09079999999999999,3.287406878544171
-0.09077499999999999,3.287406878544171
-0.09075,3.287406878544171
-0.090725,3.287406878544171
-0.09069999999999999,3.287406878544171
-0.09067499999999999,3.287406878544171
-0.09064999999999999,3.287406878544171
-0.090625,3.287406878544171
-0.0906,3.287406878544171
-0.09057499999999999,3.287406878544171
-0.09054999999999999,3.287406878544171
-0.09052499999999999,3.287406878544171
-0.0905,3.287406878544171
-0.090475,3.291082867757634
-0.09044999999999999,3.291082867757634
-0.09042499999999999,3.291082867757634
-0.09039999999999999,3.287406878544171
-0.090375,3.291082867757634
-0.09035,3.287406878544171
-0.09032499999999999,3.287406878544171
-0.09029999999999999,3.287406878544171
-0.09027499999999999,3.287406878544171
-0.09025,3.287406878544171
-0.090225,3.287406878544171
-0.09019999999999999,3.287406878544171
-0.09017499999999999,3.287406878544171
-0.09014999999999999,3.287406878544171
-0.090125,3.287406878544171
-0.0901,3.287406878544171
-0.09007499999999999,3.287406878544173
-0.09004999999999999,3.291082867757634
-0.09002499999999999,3.291082867757634
-0.09,3.287406878544171
-0.089975,3.287406878544171
-0.08994999999999999,3.287406878544171
-0.08992499999999999,3.287406878544171
-0.08989999999999999,3.291082867757634
-0.089875,3.291082867757634
-0.08985,3.287406878544171
-0.08982499999999999,3.287406878544173
-0.08979999999999999,3.291082867757634
-0.08977499999999999,3.291082867757634
-0.08975,3.287406878544171
-0.089725,3.291082867757634
-0.08969999999999999,3.291082867757634
-0.08967499999999999,3.291082867757634
-0.08964999999999999,3.287406878544171
-0.089625,3.291082867757634
-0.0896,3.291082867757634
-0.08957499999999999,3.287406878544171
-0.08954999999999999,3.287406878544171
-0.08952499999999999,3.287406878544171
-0.0895,3.287406878544171
-0.089475,3.287406878544171
-0.08944999999999999,3.291082867757632
-0.08942499999999999,3.287406878544171
-0.08939999999999999,3.287406878544171
-0.089375,3.287406878544171
-0.08935,3.287406878544171
-0.08932499999999999,3.287406878544171
-0.08929999999999999,3.287406878544171
-0.08927499999999999,3.287406878544171
-0.08925,3.287406878544171
-0.089225,3.291082867757634
-0.08919999999999999,3.287406878544171
-0.08917499999999999,3.287406878544171
-0.08914999999999999,3.291082867757634
-0.089125,3.287406878544171
-0.0891,3.291082867757634
-0.08907499999999999,3.291082867757632
-0.08904999999999999,3.287406878544171
-0.08902499999999999,3.287406878544171
-0.089,3.287406878544171
-0.088975,3.287406878544171
-0.08894999999999999,3.287406878544171
-0.08892499999999999,3.287406878544171
-0.08889999999999999,3.287406878544171
-0.088875,3.287406878544171
-0.08885,3.287406878544171
-0.088825,3.287406878544171
-0.08879999999999999,3.287406878544171
-0.08877499999999999,3.287406878544171
-0.08875,3.287406878544171
-0.088725,3.287406878544171
-0.0887,3.287406878544171
-0.08867499999999999,3.287406878544171
-0.08864999999999999,3.287406878544171
-0.088625,3.291082867757634
-0.0886,3.291082867757634
-0.088575,3.291082867757634
-0.08854999999999999,3.291082867757634
-0.08852499999999999,3.291082867757634
-0.0885,3.291082867757634
-0.088475,3.291082867757634
-0.08845,3.291082867757634
-0.08842499999999999,3.291082867757634
-0.08839999999999999,3.291082867757634
-0.088375,3.291082867757634
-0.08835,3.291082867757634
-0.088325,3.291082867757634
-0.08829999999999999,3.287406878544171
-0.08827499999999999,3.287406878544171
-0.08825,3.287406878544171
-0.088225,3.287406878544171
-0.0882,3.287406878544171
-0.08817499999999999,3.287406878544171
-0.08814999999999999,3.287406878544171
-0.088125,3.291082867757634
-0.0881,3.291082867757634
-0.088075,3.287406878544173
-0.08804999999999999,3.287406878544171
-0.08802499999999999,3.287406878544171
-0.08799999999999999,3.291082867757634
-0.087975,3.291082867757634
-0.08795,3.287406878544173
