d8/2.realisering/filtere/one filter skope.csv

#Digilent WaveForms Oscilloscope Acquisition
#Device Name: Discovery2
#Serial Number: SN:210321B219AA
#Date Time: 2023-11-10 15:39:56.947
#Sample rate: 40000Hz
#Samples: 8192
#Trigger: Source: Channel 1 Type: Edge Condition: Rising Level: 0 V Hyst.: Auto HoldOff: 0 s
#Channel 1: Range: 200 mV/div Offset: 0 V Attenuation: 1 X Sample Mode: Average
#Channel 2: Range: 100 mV/div Offset: 0 V Attenuation: 1 X Sample Mode: Average
#Power Supplies: ON
#Positive Supply: ON
#Voltage: 5 V
#Negative Supply: ON
#Voltage: -5 V

Time (s),Channel 1 (V),Channel 2 (V)
-0.1023827881619938,0.01811436532479712,0.9662938851983055
-0.1023577881619938,0.06600144047455297,1.484471375838782
-0.1023327881619938,-0.008340732135576189,1.755176185763834
-0.1023077881619938,-0.09172452033346168,1.469656684748226
-0.1022827881619938,-0.04484206913786341,1.29491066938608
-0.1022577881619938,-0.07096229194683959,1.645412792684721
-0.1022327881619938,-0.1211934896563639,1.469993382272826
-0.1022077881619938,-0.02173571819146141,1.067639840157855
-0.1021827881619938,0.04155559092259626,1.681102730311672
-0.1021577881619938,0.08006617583326626,1.522518196139088
-0.1021327881619938,-0.0150382251635188,1.612753132780813
-0.1021077881619938,-0.1168401191882602,1.897935936271378
-0.1020827881619938,-0.1469788378139882,1.32656023671564
-0.1020577881619938,-0.1064590049949354,1.610059552582552
-0.1020327881619938,-0.01604284911771019,1.108043543131761
-0.1020077881619938,0.1574222203060034,0.9686507678717834
-0.1019827881619938,0.1832075684636147,1.252486781263154
-0.1019577881619938,0.2542009945597741,0.5403715163483723
-0.1019327881619938,0.230759768961975,1.920494670432069
-0.1019077881619938,0.1212557579551133,0.1578831281953887
-0.1018827881619938,0.09614015910032853,1.358546501569983
-0.1018577881619938,-0.1144959966285694,1.613426527830196
-0.1018327881619938,-0.3405363863215297,1.214439960963049
-0.1018077881619938,-0.3546011216802091,1.109390333230892
-0.1017827881619938,-0.3616334893595489,1.375044680284328
-0.1017577881619938,-0.2588269713806298,1.043734315898293
-0.1017327881619938,-0.09708251475574191,1.340028137706738
-0.1017077881619938,0.06533169117179252,0.8891901520231003
-0.1016827881619938,0.166798710545123,1.188850949079575
-0.1016577881619938,0.1755054514814484,1.754166093189486
-0.1016327881619938,0.02380723439854834,1.892212078350334
-0.1016077881619938,-0.05020006356027217,1.763256926358604
-0.1015827881619938,-0.1704200634117874,1.739351402099054
-0.1015577881619938,-0.1556855787503136,1.110063728280457
-0.1015327881619938,-0.06426479891889698,1.276729003047822
-0.1015077881619938,0.0124214962510459,1.613426527830378
-0.1014827881619938,0.01610511741641266,1.185483973831944
-0.1014577881619938,0.1420179863417354,0.6477780267540076
-0.1014327881619938,0.302757819012358,0.8689883005361468
-0.1014077881619938,0.225736649191018,1.494235604057353
-0.1013827881619938,0.1339809947082043,1.108716938181326
-0.1013577881619938,-0.02307521679697852,1.538342979803673
-0.1013327881619938,-0.1774524310911271,0.9652837926239578
-0.1013077881619938,-0.2008936566889262,1.110063728280457
-0.1012827881619938,-0.2487807318387159,0.9656204901487404
-0.1012577881619938,-0.1761129324855386,0.9673039777726532
-0.1012327881619938,-0.04383744518373217,1.0467645936213
-0.1012077881619938,0.00404962996611764,0.8986176827170118
-0.1011827881619938,0.001035758103543465,1.614099922879943
-0.1011577881619938,-0.04350257053227489,1.612079737731248
-0.1011327881619938,-0.08301777939713628,1.183127091158271
-0.1011077881619938,-0.09172452033345772,1.727566988731417
-0.1010827881619938,-0.09641276545302151,0.9662938851983055
-0.1010577881619938,-0.04819081565183472,1.718476155562535
-0.1010327881619938,0.005724003223103292,0.9279103673730942
-0.1010077881619938,0.08073592513606052,1.728240383781229
-0.1009827881619938,-0.0110197293467115,1.775378037250766
-0.1009577881619938,-0.05421855937698306,1.25147668868913
-0.1009327881619938,-0.04886056495462898,1.394236439196934
-0.1009077881619938,0.02414210904994547,1.254843663936956
-0.1008827881619938,0.09680990840312279,0.824880924789632
-0.1008577881619938,0.08944266607238927,1.471003474847063
-0.1008327881619938,0.0881031674667974,1.043397618373511
-0.1008077881619938,-0.01202435330094462,1.328243724339553
-0.1007827881619938,-0.08670140056250472,1.453495203558664
-0.1007577881619938,-0.08335265404853341,1.110737123330022
-0.1007327881619938,-0.1449695899055774,1.251813386213849
-0.1007077881619938,-0.08837577381949037,1.35282264364868
-0.1006827881619938,-0.04517694378926054,0.4373420737649101
-0.1006577881619938,0.08006617583326626,1.251813386213913
-0.1006327881619938,0.1416831116903383,0.8689883005361468
-0.1006077881619938,0.04389971348242064,1.613089830305257
-0.1005827881619938,-0.05890680449654289,1.275718910473474
-0.1005577881619938,-0.04283282122948063,0.8107396287487647
-0.1005327881619938,-0.1168401191882465,2.041032384304224
-0.1005077881619938,-0.2671988376655581,1.611743040206465
-0.1004827881619938,-0.3331691439907628,1.613089830305595
-0.1004577881619938,-0.2390693669481991,1.043060920848728
-0.1004327881619938,-0.01805209702609297,1.042050828274381
-0.1004077881619938,0.05695982488686426,1.469993382273009
-0.1003827881619938,0.1714869556646829,1.327233631765205
-0.1003577881619938,0.2364526380356967,1.020165489163654
-0.1003327881619938,0.3195015515822145,0.8252176223144145
-0.1003077881619938,0.271949351083822,1.425886006526494
-0.1002827881619938,0.07504305606230931,1.470330079797792
-0.1002577881619938,-0.08368752869993056,1.003330612924387
-0.1002327881619938,-0.1650620689893963,0.9669672802478871
-0.1002077881619938,-0.3214485311918932,2.157529727878988
-0.1001827881619938,-0.4409987817406688,1.469656684748226
-0.1001577881619938,-0.3706751049472714,1.183127091158271
-0.1001327881619938,-0.2417483641593761,1.336997859983899
-0.1001077881619938,-0.1329141024553087,1.890865288251204
-0.1000827881619938,-0.06259042566191134,1.755512883288616
-0.1000577881619938,0.1446969835529124,0.9666305827230881
-0.1000327881619938,0.3298826657755256,1.252150083738695
-0.1000077881619938,0.3878159804672291,0.9666305827230881
-0.09998278816199377,0.4852645040237942,0.8258910173639797
-0.09995778816199376,0.3734163704571526,1.111410518379587
-0.09993278816199376,0.1554129723976206,1.538006282279085
-0.09990778816199376,-0.08402240335132768,0.9683140703470008
-0.09988278816199377,-0.2665290883627638,0.8235341346905019
-0.09985778816199377,-0.3214485311918932,1.079424253525244
-0.09983278816199376,-0.3813910937919796,1.284809743642603
-0.09980778816199376,-0.4343012887127262,1.37268779761085
-0.09978278816199376,-0.4215760519596352,1.701641279323407
-0.09975778816199377,-0.2648547151057782,0.9662938851983055
-0.09973278816199377,-0.0458466930920548,1.538342979803868
-0.09970778816199376,0.127618376331694,1.25181338621401
-0.09968278816199376,0.2049744208043959,1.465953011975618
-0.09965778816199376,0.3114645599486834,1.324203354042162
-0.09963278816199377,0.3476310222995735,1.331947397112161
-0.09960778816199377,0.2364526380357262,1.326896934240423
-0.09958278816199376,0.05963882209795648,1.809721184778353
-0.09955778816199376,-0.1268863587301604,1.24878310849087
-0.09953278816199376,-0.1607086985212706,1.351475853549549
-0.09950778816199377,-0.3385271384131469,1.581103565451252
-0.09948278816199377,-0.3174300353751277,1.25147668868913
-0.09945778816199376,-0.2752358292990009,1.292217089187641
-0.09943278816199376,-0.0810085314887535,0.899964472816142
-0.09940778816199376,0.08508929560422322,1.135316042639148
-0.09938278816199377,0.2324341422189606,0.8242075297400669
-0.09935778816199377,0.3516495181163391,1.168649097592622
-0.09933278816199376,0.2140160363920617,1.898609331320879
-0.09930778816199376,0.08910779142098879,1.185483973831749
-0.09928278816199376,-0.0304424591277868,1.469319987223444
-0.09925778816199377,-0.09473839219603586,0.6811110817074807
-0.09923278816199377,-0.1871637959816439,1.394573136721716
-0.09920778816199376,-0.2373949936912054,1.109727030755813
-0.09918278816199376,-0.2196466371671655,1.415785080783017
-0.09915778816199376,-0.2655244644085724,1.518477825841697
-0.09913278816199377,-0.1988844087805434,1.709722019918189
-0.09910778816199377,-0.1908474171470123,1.612753132780813
-0.09908278816199376,-0.01972647028299944,0.8642745351894976
-0.09905778816199376,0.1544083484434292,1.538342979803868
-0.09903278816199376,0.3315570390325113,0.8258910173639797
-0.09900778816199376,0.3355755348492768,1.517467733267349
-0.09898278816199377,0.2217181533742525,1.417131870882148
-0.09895778816199376,0.05796444884100403,1.393226346622551
-0.09893278816199376,-0.05555805798257159,1.316122613447381
-0.09890778816199376,-0.2065865257626774,1.471676869896922
-0.09888278816199376,-0.2792543251158548,1.326896934240423
-0.09885778816199377,-0.3211136565404961,1.32790702681477
-0.09883278816199376,-0.253134102306802,0.9598966322275767
-0.09880778816199376,-0.08469215265412194,1.26730147235391
-0.09878278816199376,-0.0733064145066195,1.951134145187281
-0.09875778816199376,-0.0314470830819782,1.133295857490453
-0.09873278816199377,0.1045120253852568,1.514437455544306
-0.09870778816199376,0.2287505210535757,1.142049993135013
-0.09868278816199376,0.1925840587027021,1.61241643525603
-0.09865778816199376,0.1875609389317451,0.7568680247835557
-0.09863278816199376,0.2451593789720516,1.070333420356115
-0.09860778816199377,0.07939642653047201,1.392889649097804
-0.09858278816199376,-0.1262166094274511,1.663257761498276
-0.09855778816199376,-0.313076664906965,1.839687264484255
-0.09853278816199376,-0.3813910937919796,0.8235341346905019
-0.09850778816199376,-0.3683309823874915,2.033961736283791
-0.09848278816199377,-0.3991394503160275,2.040358989254659
-0.09845778816199376,-0.3164254114208294,1.467973197124185
-0.09843278816199376,-0.08134340614015063,1.184137183732619
-0.09840778816199376,0.1684730838021087,1.327233631765205
-0.09838278816199376,0.415610576533191,0.8807727139035363
-0.09835778816199377,0.59778238689323,0.7774065737952917
-0.09833278816199377,0.6038101306183755,1.157538079274624
-0.09830778816199376,0.3968575960549517,1.642382514961678
-0.09828278816199376,0.146036482158501,0.719494599532692
-0.09825778816199376,-0.08033878218595925,0.9669672802478706
-0.09823278816199377,-0.2792543251158548,1.014104933717428
-0.09820778816199377,-0.4821883638624236,1.633965076841832
-0.09818278816199376,-0.6502954388638753,1.393563044147369
-0.09815778816199376,-0.6003991158057029,0.9666305827230881
-0.09813278816199376,-0.359289366799769,1.254170268887391
-0.09810778816199377,-0.0810085314887535,0.8235341346905019
-0.09808278816199377,0.1128838916700969,1.614436620404366
-0.09805778816199376,0.2237274012826352,1.892548775875117
-0.09803278816199376,0.3556680139331047,0.6834679643809586
-0.09800778816199376,0.4300101865432676,1.267638169878693
-0.09798278816199377,0.2990741978469896,1.664941249122109
-0.09795778816199377,0.1302973735429126,1.561575109013911
-0.09793278816199376,0.002710131360529118,0.6154550643748823
-0.09790778816199376,-0.09172452033346168,1.29491066938608
-0.09788278816199376,-0.118179617793835,0.5383513311996769
-0.09785778816199377,-0.2132840187906201,1.580430170401687
-0.09783278816199377,-0.3291506481739745,1.470330079797842
-0.09780778816199376,-0.4115298124177213,1.560228318914734
-0.09778278816199376,-0.3345086425963813,1.25147668868913
-0.09775778816199376,-0.1821406762106869,1.251139991164348
-0.09773278816199377,0.03418834859185939,1.245416133243044
-0.09770778816199377,0.09346116188912454,1.685479798133645
-0.09768278816199376,0.2267412731452094,1.107706845606979
-0.09765778816199376,0.2920418301676498,1.473023659996052
-0.09763278816199376,0.2274110224480037,1.314439125823468
-0.09760778816199377,0.2156904096491041,0.9666305827230881
-0.09758278816199377,0.1530688498378692,0.9868324342100322
-0.09755778816199376,0.03552784719744791,1.374371285234763
-0.09753278816199376,-0.1650620689894333,1.681102730311672
-0.09750778816199376,-0.3281460242198359,1.069996722831333
-0.09748278816199377,-0.3837352163517595,1.7191495506121
-0.09745778816199377,-0.3073837958332485,0.6521550945766661
-0.09743278816199376,-0.1610435731726677,1.470666777322574
-0.09740778816199376,-0.1161703698854522,1.469319987223444
-0.09738278816199376,-0.0699576679926482,1.98514059519032
-0.09735778816199377,-0.02876808587080115,1.241375762945654
-0.09733278816199377,0.1319717467997484,1.549790695646335
-0.09730778816199376,0.143692359598721,1.53733288722952
-0.09728278816199376,0.1356553679651899,1.754166093189486
-0.09725778816199376,0.08207542374164904,1.471003474847357
-0.09723278816199377,-0.006666358878590536,1.614773317929508
-0.09720778816199377,-0.03379120564174577,1.456862178806561
-0.09718278816199376,-0.1352582250150887,1.915780905085113
-0.09715778816199376,-0.1938612890095865,1.469993382273009
-0.09713278816199376,-0.1764478071369357,1.472013567421704
-0.09710778816199377,-0.04551181844065767,1.043060920848728
-0.09708278816199377,0.1051817746879825,0.933297527769665
-0.09705778816199376,0.1550780977462235,2.010392909549012
-0.09703278816199376,-0.02240546749425567,2.065611303613351
-0.09700778816199376,-0.04417231983506915,1.160231659473058
-0.09698278816199377,-0.00264786306182497,1.484808073363441
-0.09695778816199377,-0.0193915956316815,1.394236439196934
-0.09693278816199376,0.06198294465782122,0.8242075297400669
-0.09690778816199376,0.07839180257628062,1.25147668868913
-0.09688278816199376,0.1115443930645965,1.394573136721716
-0.09685778816199377,0.06968506163995522,0.6811110817074807
-0.09683278816199377,0.063992192566204,1.264271194630867
-0.09680778816199376,-0.05522318333117446,1.755849580813399
-0.09678278816199376,-0.1935264143581894,1.32656023671564
-0.09675778816199376,-0.3221182804946875,1.944736892216413
-0.09673278816199377,-0.3160905367695391,1.393563044147369
-0.09670778816199377,-0.2407437402051848,1.214103263438266
-0.09668278816199376,-0.07364128915794842,1.185820671356479
-0.09665778816199376,0.07638255466789783,1.070670117880898
-0.09663278816199376,0.1959328052166734,1.443394277815187
-0.09660778816199377,0.2622379861933052,1.059559099563073
-0.09658278816199377,0.3248595460045686,1.25282347878826
-0.09655778816199376,0.1728264542701651,1.813088160026342
-0.09653278816199376,-0.06091605240492567,1.61241643525603
-0.09650778816199376,-0.2350508711314336,1.614099922879943
-0.09648278816199377,-0.3026955507136539,1.32656023671564
-0.09645778816199377,-0.3398666370187354,1.746085352594705
-0.09643278816199376,-0.3442200074868641,1.478074122867982
-0.09640778816199376,-0.269542960225338,1.899956121420333
-0.09638278816199376,-0.169415439457596,1.23430511492522
-0.09635778816199377,0.08475442095282609,1.565952176836037
-0.09633278816199377,0.2287505210535922,1.367300637214329
-0.09630778816199376,0.3449520250884358,1.253160176312834
-0.09628278816199376,0.4313496851488561,0.7942414500344195
-0.09625778816199376,0.4189593230471623,1.185820671356532
-0.09623278816199377,0.2773073455061761,1.328917119389118
-0.09620778816199377,0.04724845999634748,1.275382212948692
-0.09618278816199376,-0.1777873057425911,1.39457313672155
-0.09615778816199376,-0.3247972777058645,1.028246229758296
-0.09613278816199376,-0.4162180575372811,1.332957489686509
-0.09610778816199377,-0.4326269154557406,1.396256624345629
-0.09608278816199377,-0.4490357733741999,1.541036560002128
-0.09605778816199376,-0.2450971106732582,0.9629269099507409
-0.09603278816199376,-0.04886056495462898,1.536996189704738
-0.09600778816199376,0.1182418860925391,1.769317481804701
-0.09598278816199377,0.1617755907741661,1.590867793669947
-0.09595778816199377,0.2505173733944057,1.252150083738695
-0.09593278816199376,0.3171574290224183,1.109390333231151
-0.09590778816199376,0.2813258413229417,1.679755940212541
-0.09588278816199376,0.1095351451562138,1.291206996613472
-0.09585778816199376,0.01811436532479712,1.470330079797792
-0.09583278816199377,-0.2136188934420172,1.898609331321203
-0.09580778816199376,-0.3981348263618037,1.486828258512161
-0.09578278816199376,-0.3268065256142473,1.539353072378216
-0.09575778816199376,-0.3673263584333001,1.955847910534237
-0.09573278816199376,-0.2963329323371084,1.400970389692585
-0.09570778816199377,-0.0424979465780835,0.6807743841826981
-0.09568278816199376,0.2331038915218218,1.395246531771156
-0.09565778816199376,0.3801138634850952,1.118481166400021
-0.09563278816199376,0.4176198244415738,1.241039065420871
-0.09560778816199376,0.4936363703087224,0.5400348188235897
-0.09558278816199377,0.4517770388840811,0.7780799688448568
-0.09555778816199376,0.1909096854455859,1.299624434732996
-0.09553278816199376,-0.09607789080162438,1.212756473339136
-0.09550778816199376,-0.3626381133137402,1.614436620404726
-0.09548278816199376,-0.5916923748693775,1.07235360550481
-0.09545778816199377,-0.6131243525587938,1.297604249584341
-0.09543278816199376,-0.5863343804469583,1.612416435256006
-0.09540778816199376,-0.4430080296490516,1.559554923865169
-0.09538278816199376,-0.2347159964800364,1.394909834246499
-0.09535778816199376,0.08341492234723757,1.173026165414795
-0.09533278816199377,0.3282082925185399,1.617803595652551
-0.09530778816199376,0.5107149775300224,0.965283792624024
-0.09528278816199376,0.6125168715547037,1.110737123330022
-0.09525778816199376,0.5200914677690958,1.251813386213913
-0.09523278816199376,0.2672611059642622,1.537669584754303
-0.09520778816199377,-0.02809833656800689,1.627904521396028
-0.09518278816199377,-0.3227880297973477,1.327907026814907
-0.09515778816199376,-0.4215760519596352,1.087504994120025
-0.09513278816199376,-0.4731467482747933,1.141376598085234
-0.09510778816199376,-0.513331706442449,1.789856030816437
-0.09508278816199377,-0.4065066926467644,1.435313537220406
-0.09505778816199377,-0.2809286983728975,1.494572301582109
-0.09503278816199376,-0.04450719448646628,1.394909834246499
-0.09500778816199376,0.21033241522675,1.664604551597326
-0.09498278816199376,0.3318919136839084,1.32521344661651
-0.09495778816199377,0.4316845598002533,1.477064030293443
-0.09493278816199377,0.3603562590526969,1.462249339203017
-0.09490778816199376,0.2602287382849224,1.756522975862964
-0.09488278816199376,0.02849547951810816,1.392889649097804
-0.09485778816199376,-0.1777873057425242,1.547433812972997
-0.09483278816199377,-0.3395317623673383,1.755849580813399
-0.09480778816199377,-0.4008138235729853,1.449791530786195
-0.09478278816199376,-0.3391968877159411,1.203665640170007
-0.09475778816199376,-0.233711372525845,1.469993382273009
-0.09473278816199376,-0.1077985036005239,1.468646592173879
-0.09470778816199377,0.0673409390801753,1.146427060956973
-0.09468278816199377,0.178854197995369,1.537669584754125
-0.09465778816199376,0.3024229443609609,1.298614342158688
-0.09463278816199376,0.2558753678167597,1.491542023859093
-0.09460778816199376,0.2314295182647692,0.9656204901487404
-0.09458278816199377,0.179523947298214,1.526221868911696
-0.09455778816199377,0.002040382057815565,1.328580421864425
-0.09453278816199376,-0.2039075285515004,2.045072754601615
-0.09450778816199376,-0.3579498681941805,1.468646592173879
-0.09448278816199376,-0.4523845198881712,1.613089830305595
-0.09445778816199377,-0.4125344363719127,1.898946028845985
-0.09443278816199377,-0.3663217344791297,1.740361494673474
-0.09440778816199376,-0.1466439631625911,0.9686507678717834
-0.09438278816199376,0.1319717467998215,1.538342979803868
-0.09435778816199376,0.2883582090022814,1.495245696631701
-0.09433278816199377,0.4561304093522438,1.010737958469603
-0.09430778816199377,0.4812460082070171,1.504673227325388
-0.09428278816199376,0.372076871851564,1.61376322535516
-0.09425778816199376,0.1738310782244628,0.9235332995509209
-0.09423278816199376,0.01710974137060573,1.305348292654339
-0.09420778816199377,-0.1978797848263521,1.201645455021312
-0.09418278816199377,-0.2792543251158178,0.6834679643811942
-0.09415778816199376,-0.2990119295482855,1.816791832799042
-0.09413278816199376,-0.4795093666513388,1.469993382273009
-0.09410778816199376,-0.438989533832286,1.752145908040791
