d8/1.prinsipell/samenligning av delay ved n=16/g(20,32)/offeset g(20,32) på channel 2, IT WORK!!!.csv

#Digilent WaveForms Oscilloscope Acquisition
#Device Name: Discovery2
#Serial Number: SN:210321B219AA
#Date Time: 2023-11-07 13:16:45.730
#Sample rate: 400Hz
#Samples: 8192
#Trigger: Source: Channel 1 Type: Edge Condition: Rising Level: 0 V Hyst.: Auto HoldOff: 0 s
#Channel 1: Range: 1 V/div Offset: 0 V Attenuation: 1 X Sample Mode: Average
#Channel 2: Range: 1 V/div Offset: 0 V Attenuation: 1 X Shift: 1.34217728 s Sample Mode: Average

Time (s),Channel 1 (V),Channel 2 (V)
-10.24,3.298434846184559,3.286177614441645
-10.2375,3.298434846184559,3.286177614441645
-10.235,3.298434846184559,3.286177614441645
-10.2325,3.298434846184559,3.286177614441645
-10.23,3.298434846184559,3.286177614441645
-10.2275,3.298434846184489,3.286177614441645
-10.225,3.144043299219131,2.7619114866423
-10.2225,-0.01363143514521778,0.3266145075635678
-10.22,-0.01363143514521778,-0.02283124591476217
-10.2175,-0.01363143514521611,-0.02283124591476217
-10.215,-0.009955445931755206,-0.02283124591476217
-10.2125,-0.009955445931755206,-0.02283124591476217
-10.21,-0.01363143514521611,-0.02283124591476217
-10.2075,-0.01363143514521778,-0.02283124591476217
-10.205,-0.01363143514521778,-0.02283124591476217
-10.2025,-0.01363143514521778,-0.02283124591476217
-10.2,-0.01363143514521778,-0.02283124591476217
-10.1975,-0.01363143514521778,-0.02283124591476217
-10.195,-0.01363143514521778,-0.02283124591476217
-10.1925,-0.01363143514521778,-0.02283124591476217
-10.19,-0.009955445931755206,-0.02283124591476217
-10.1875,-0.01363143514521778,-0.02283124591476217
-10.185,-0.01363143514521778,-0.02283124591476217
-10.1825,-0.009955445931756879,-0.02283124591476217
-10.18,-0.01363143514521778,-0.02283124591476217
-10.1775,-0.01363143514521778,-0.02283124591476217
-10.175,-0.01363143514521778,-0.02283124591476217
-10.1725,-0.01363143514521778,-0.02283124591476217
-10.17,-0.01363143514521778,-0.02283124591476217
-10.1675,-0.01363143514521778,-0.02283124591476217
-10.165,-0.01363143514521778,-0.02283124591476217
-10.1625,-0.01363143514521778,-0.02283124591476217
-10.16,-0.01363143514521778,-0.02283124591476217
-10.1575,-0.01363143514521778,-0.02283124591476217
-10.155,-0.01363143514521778,-0.02283124591476217
-10.1525,-0.01363143514521778,-0.02283124591476217
-10.15,-0.01363143514521778,-0.02283124591476217
-10.1475,-0.01363143514521778,-0.02283124591476217
-10.145,-0.01363143514521778,-0.02283124591476217
-10.1425,-0.01363143514521778,-0.02283124591476217
-10.14,1.618507775632164,1.78476117017774
-10.1375,3.298434846184559,3.126948580797237
-10.135,3.298434846184559,3.286177614441645
-10.1325,3.298434846184559,3.286177614441645
-10.13,3.298434846184559,3.286177614441645
-10.1275,3.298434846184559,3.286177614441645
-10.125,3.298434846184559,3.286177614441645
-10.1225,3.298434846184559,3.286177614441645
-10.12,3.298434846184559,3.286177614441645
-10.1175,3.298434846184559,3.286177614441645
-10.115,3.298434846184559,3.286177614441645
-10.1125,3.298434846184559,3.286177614441645
-10.11,3.298434846184559,3.286177614441645
-10.1075,3.298434846184559,3.286177614441645
-10.105,3.298434846184559,3.286177614441645
-10.1025,3.298434846184559,3.286177614441645
-10.1,3.298434846184559,3.286177614441645
-10.0975,0.931097792714663,0.8353138758950154
-10.095,-0.01363143514478815,0.04105106099691752
-10.0925,-0.01363143514521778,-0.02283124591476217
-10.09,-0.01363143514521778,-0.02283124591476217
-10.0875,-0.01363143514521778,-0.02283124591476217
-10.085,-0.01363143514521778,-0.02283124591476217
-10.0825,-0.01363143514521778,-0.02283124591476217
-10.08,-0.01363143514521778,-0.02283124591476217
-10.0775,-0.01363143514521778,-0.02283124591476217
-10.075,-0.009955445931756879,-0.02283124591476217
-10.0725,-0.01363143514521778,-0.02283124591476217
-10.07,-0.009955445931755206,-0.02283124591476217
-10.0675,-0.009955445931755206,-0.02283124591476217
-10.065,-0.01363143514521778,-0.02283124591476217
-10.0625,-0.009955445931755206,-0.02283124591476217
-10.06,-0.009955445931755206,-0.02283124591476217
-10.0575,-0.009955445931756879,-0.02283124591476217
-10.055,-0.01363143514521778,-0.02283124591476217
-10.0525,-0.009955445931755206,-0.02283124591476217
-10.05,-0.009955445931755206,-0.02283124591476217
-10.0475,-0.009955445931755206,-0.02283124591476217
-10.045,-0.009955445931755206,-0.02283124591476217
-10.0425,-0.009955445931755206,-0.02283124591476217
-10.04,-0.01363143514521611,-0.02283124591476217
-10.0375,-0.009955445931755206,-0.02283124591476217
-10.035,-0.01363143514521778,-0.02283124591476217
-10.0325,-0.01363143514521778,-0.02283124591476217
-10.03,-0.01363143514521778,-0.02283124591476217
-10.0275,-0.01363143514521778,-0.02283124591476217
-10.025,-0.01363143514521778,-0.02283124591476217
-10.0225,-0.01363143514521778,-0.02283124591476217
-10.02,-0.01363143514521778,-0.02283124591476217
-10.0175,-0.01363143514521778,-0.02283124591476217
-10.015,0.519387000806855,0.829503256335261
-10.0125,3.298434846184559,2.985358691598466
-10.01,3.298434846184559,3.286177614441645
-10.0075,3.298434846184559,3.286177614441645
-10.005,3.298434846184559,3.286177614441645
-10.0025,3.298434846184559,3.286177614441645
-10,3.298434846184559,3.286177614441645
-9.9975,3.298434846184559,3.286177614441645
-9.994999999999999,3.298434846184559,3.286177614441645
-9.9925,3.298434846184559,3.286177614441645
-9.99,3.298434846184559,3.286177614441645
-9.987500000000001,3.298434846184559,3.286177614441645
-9.984999999999999,3.298434846184559,3.286177614441645
-9.9825,3.298434846184559,3.286177614441645
-9.98,3.298434846184559,3.286177614441645
-9.977499999999999,3.298434846184559,3.286177614441645
-9.975,3.298434846184559,3.286177614441645
-9.9725,3.298434846184559,3.286177614441645
-9.970000000000001,3.298434846184559,3.286177614441645
-9.967499999999999,3.298434846184559,3.286177614441645
-9.965,3.298434846184559,3.286177614441645
-9.9625,3.298434846184559,3.286177614441645
-9.960000000000001,3.298434846184559,3.286177614441645
-9.9575,3.298434846184559,3.286177614441645
-9.955,3.298434846184559,3.286177614441645
-9.952500000000001,3.298434846184559,3.286177614441645
-9.949999999999999,3.298434846184559,3.286177614441645
-9.9475,3.298434846184559,3.286177614441645
-9.945,3.298434846184559,3.286177614441645
-9.942500000000001,3.298434846184559,3.286177614441645
-9.94,3.298434846184559,3.286177614441645
-9.9375,3.298434846184559,3.286177614441645
-9.935,3.298434846184559,3.286177614441645
-9.932499999999999,3.298434846183644,3.286177614441645
-9.93,1.287668746420532,1.147300467284809
-9.9275,-0.009955445931755206,0.08729422346244697
-9.925000000000001,-0.009955445931755206,-0.02283124591476217
-9.922499999999999,-0.009955445931755206,-0.02283124591476217
-9.92,-0.009955445931755206,-0.02283124591476217
-9.9175,-0.01363143514521778,-0.02283124591476217
-9.914999999999999,-0.01363143514521778,-0.02283124591476217
-9.9125,-0.01363143514521778,-0.02283124591476217
-9.91,-0.01363143514521778,-0.02283124591476217
-9.907500000000001,-0.01363143514521778,-0.02283124591476217
-9.904999999999999,-0.01363143514521778,-0.02283124591476217
-9.9025,-0.01363143514521778,-0.02283124591476217
-9.9,-0.009955445931755206,-0.02283124591476217
-9.897500000000001,-0.009955445931755206,-0.02283124591476217
-9.895,-0.01363143514521778,-0.02283124591476217
-9.8925,-0.009955445931755206,-0.02283124591476217
-9.890000000000001,-0.009955445931755206,-0.02283124591476217
-9.887499999999999,-0.009955445931755206,-0.02283124591476217
-9.885,-0.009955445931755206,-0.02283124591476217
-9.8825,-0.009955445931755206,-0.02283124591476217
-9.880000000000001,-0.009955445931755206,-0.02283124591476217
-9.8775,-0.009955445931755206,-0.02283124591476217
-9.875,-0.009955445931755206,-0.02283124591476217
-9.8725,-0.009955445931755206,-0.02283124591476217
-9.869999999999999,-0.009955445931755206,-0.02283124591476217
-9.8675,-0.009955445931755206,-0.02283124591476217
-9.865,-0.009955445931755206,-0.02283124591476217
-9.862500000000001,-0.009955445931755206,-0.02283124591476217
-9.859999999999999,-0.009955445931755206,-0.02283124591476217
-9.8575,-0.009955445931755206,-0.02283124591476217
-9.855,-0.009955445931755206,-0.02283124591476217
-9.852499999999999,-0.009955445931755206,-0.02283124591476217
-9.85,-0.009955445931755206,-0.02283124591476217
-9.8475,0.1664920363144482,0.5207330215581779
-9.845000000000001,3.298434846183135,2.939592262764099
-9.842499999999999,3.298434846184559,3.286177614441645
-9.84,3.298434846184559,3.286177614441645
-9.8375,3.298434846184559,3.286177614441645
-9.835000000000001,3.298434846184559,3.286177614441645
-9.8325,3.298434846184559,3.286177614441645
-9.83,3.298434846184559,3.286177614441645
-9.827500000000001,3.298434846184559,3.286177614441645
-9.824999999999999,3.298434846184559,3.286177614441645
-9.8225,3.298434846184559,3.286177614441645
-9.82,3.298434846184559,3.286177614441645
-9.817500000000001,3.298434846184559,3.286177614441645
-9.815,3.298434846184559,3.286177614441645
-9.8125,3.298434846184559,3.286177614441645
-9.81,3.298434846184559,3.286177614441645
-9.807499999999999,3.298434846184144,3.286177614441645
-9.805,2.386789521245841,2.102558381127787
-9.8025,-0.009955445931755206,0.2288841126617158
-9.800000000000001,-0.009955445931755206,-0.02283124591476217
-9.797499999999999,-0.009955445931755206,-0.02283124591476217
-9.795,-0.009955445931755206,-0.02283124591476217
-9.7925,-0.009955445931755206,-0.02283124591476217
-9.789999999999999,-0.009955445931755206,-0.02283124591476217
-9.7875,-0.009955445931755206,-0.02283124591476217
-9.785,-0.009955445931755206,-0.02283124591476217
-9.782500000000001,-0.009955445931755206,-0.02283124591476217
-9.779999999999999,-0.009955445931755206,-0.02283124591476217
-9.7775,-0.009955445931755206,-0.02283124591476217
-9.775,-0.009955445931755206,-0.02283124591476217
-9.772500000000001,-0.009955445931755206,-0.02283124591476217
-9.77,-0.009955445931755206,-0.02283124591476217
-9.7675,-0.009955445931755206,-0.02283124591476217
-9.765000000000001,-0.009955445931755206,-0.02283124591476217
-9.762499999999999,1.640563710913693,1.804059309853233
-9.76,3.298434846184559,3.129808982598681
-9.7575,3.298434846184559,3.286177614441645
-9.755000000000001,3.298434846184559,3.286177614441645
-9.7525,3.298434846184559,3.286177614441645
-9.75,3.298434846184559,3.286177614441645
-9.7475,3.298434846184559,3.286177614441645
-9.744999999999999,3.298434846184559,3.286177614441645
-9.7425,3.298434846184559,3.286177614441645
-9.74,3.298434846184559,3.286177614441645
-9.737500000000001,3.298434846184559,3.286177614441645
-9.734999999999999,3.298434846184559,3.286177614441645
-9.7325,3.298434846184559,3.286177614441645
-9.73,3.298434846184559,3.286177614441645
-9.727499999999999,3.298434846184559,3.286177614441645
-9.725,3.298434846184559,3.286177614441645
-9.7225,3.298434846184559,3.286177614441645
-9.720000000000001,0.9090418574349743,0.8192320928349739
-9.717499999999999,-0.009955445931755206,0.03866739282813797
-9.715,-0.009955445931755206,-0.02283124591476217
-9.7125,-0.009955445931755206,-0.02283124591476217
-9.710000000000001,-0.009955445931755206,-0.02283124591476217
-9.7075,-0.009955445931755206,-0.02283124591476217
-9.705,-0.009955445931755206,-0.02283124591476217
-9.702500000000001,-0.009955445931755206,-0.02283124591476217
-9.699999999999999,-0.009955445931755206,-0.02283124591476217
-9.6975,-0.009955445931755206,-0.02283124591476217
-9.695,-0.009955445931755206,-0.02283124591476217
-9.692500000000001,-0.009955445931755206,-0.02283124591476217
-9.69,-0.01363143514521778,-0.02283124591476217
-9.6875,-0.009955445931755206,-0.02283124591476217
-9.685,-0.009955445931755206,-0.01961488930249793
-9.682499999999999,-0.009955445931755206,-0.01913815566882868
-9.68,-0.009955445931755206,0.2092231638020515
-9.6775,3.11463538551143,2.893349100299565
-9.675000000000001,3.298434846184475,3.286177614441645
-9.672499999999999,3.298434846184559,3.286177614441645
-9.67,3.298434846184559,3.286177614441645
-9.6675,3.298434846184559,3.286177614441645
-9.664999999999999,3.298434846184559,3.286177614441645
-9.6625,3.298434846184559,3.286177614441645
-9.66,3.298434846184559,3.286177614441645
-9.657500000000001,3.298434846184559,3.286177614441645
-9.654999999999999,3.298434846184559,3.286177614441645
-9.6525,3.298434846184559,3.286177614441645
-9.65,3.298434846184559,3.286177614441645
-9.647500000000001,3.298434846184559,3.286177614441645
-9.645,3.298434846184559,3.286177614441645
-9.6425,3.298434846184559,3.286177614441645
-9.640000000000001,3.298434846184559,3.286177614441645
-9.637499999999999,2.743360474950457,2.414544972517126
-9.635,-0.01363143514521778,0.27512727512747
-9.6325,-0.009955445931755206,-0.02283124591476217
-9.630000000000001,-0.009955445931755206,-0.02283124591476217
-9.6275,-0.009955445931755206,-0.02283124591476217
-9.625,-0.009955445931755206,-0.02283124591476217
-9.6225,-0.009955445931755206,-0.02283124591476217
-9.619999999999999,-0.009955445931755206,-0.02283124591476217
-9.6175,-0.009955445931755206,-0.02283124591476217
-9.615,-0.009955445931755206,-0.02283124591476217
-9.612500000000001,-0.009955445931755206,-0.02283124591476217
-9.609999999999999,-0.009955445931755206,-0.02283124591476217
-9.6075,-0.009955445931755206,-0.02283124591476217
-9.605,-0.009955445931755206,-0.02283124591476217
-9.602499999999999,-0.009955445931755206,-0.02283124591476217
-9.6,-0.009955445931755206,-0.02283124591476217
-9.5975,-0.009955445931755206,-0.02283124591476217
-9.595000000000001,-0.009955445931755206,-0.02283124591476217
-9.592499999999999,-0.009955445931755206,-0.02283124591476217
-9.59,-0.009955445931755206,-0.02283124591476217
-9.5875,-0.009955445931755206,-0.02283124591476217
-9.585000000000001,-0.009955445931755206,-0.02283124591476217
-9.5825,-0.009955445931755206,-0.02283124591476217
-9.58,-0.009955445931755206,-0.02283124591476217
-9.577500000000001,-0.009955445931755206,-0.02283124591476217
-9.574999999999999,-0.01363143514521611,-0.02283124591476217
-9.5725,-0.009955445931755206,-0.02283124591476217
-9.57,-0.009955445931755206,-0.02283124591476217
-9.567500000000001,-0.009955445931755206,-0.02283124591476217
-9.565,-0.009955445931755206,-0.02283124591476217
-9.5625,-0.009955445931755206,-0.02283124591476217
-9.56,-0.009955445931755206,-0.02283124591476217
-9.557499999999999,-0.01363143514521611,-0.02283124591476217
-9.555,-0.009955445931755206,-0.02283124591476217
-9.5525,2.019190599899584,2.135344040915669
-9.550000000000001,3.298434846183977,3.178912546866063
-9.547499999999999,3.298434846184559,3.286177614441645
-9.545,3.298434846184559,3.286177614441645
-9.5425,3.298434846184559,3.286177614441645
-9.539999999999999,3.298434846184559,3.286177614441645
-9.5375,3.298434846184559,3.286177614441645
-9.535,3.298434846184559,3.286177614441645
-9.532500000000001,3.298434846184559,3.286177614441645
-9.529999999999999,3.298434846184559,3.286177614441645
-9.5275,3.298434846184559,3.286177614441645
-9.525,3.298434846184559,3.286177614441645
-9.522500000000001,3.298434846184559,3.286177614441645
-9.52,3.298434846184559,3.286177614441645
-9.5175,3.298434846184559,3.286177614441645
-9.515000000000001,3.298434846184559,3.286177614441645
-9.512499999999999,3.298434846184559,3.286177614441645
-9.51,3.298434846184559,3.286177614441645
-9.5075,3.298434846184559,3.286177614441645
-9.505000000000001,3.298434846184559,3.286177614441645
-9.5025,3.298434846184559,3.286177614441645
-9.5,3.298434846184559,3.286177614441645
-9.4975,3.298434846184559,3.286177614441645
-9.494999999999999,3.298434846184559,3.286177614441645
-9.4925,3.298434846184559,3.286177614441645
-9.49,3.298434846184559,3.286177614441645
-9.487500000000001,3.298434846184559,3.286177614441645
-9.484999999999999,3.298434846184559,3.286177614441645
-9.4825,3.298434846184559,3.286177614441645
-9.48,3.298434846184559,3.286177614441645
-9.477499999999999,3.298434846184559,3.286177614441645
-9.475,3.298434846184559,3.286177614441645
-9.4725,3.298434846184559,3.286177614441645
-9.470000000000001,3.298434846184559,3.286177614441645
-9.467499999999999,3.298434846184559,3.286177614441645
-9.465,3.298434846184559,3.286177614441645
-9.4625,3.298434846184559,3.286177614441645
-9.460000000000001,3.298434846184559,3.286177614441645
-9.4575,3.298434846184559,3.286177614441645
-9.455,3.298434846184559,3.286177614441645
-9.452500000000001,3.298434846184559,3.286177614441645
-9.449999999999999,3.298434846184559,3.286177614441645
-9.4475,3.298434846184559,3.286177614441645
-9.445,3.298434846184559,3.286177614441645
-9.442500000000001,3.298434846184559,3.286177614441645
-9.44,3.298434846184559,3.286177614441645
-9.4375,3.298434846184559,3.286177614441645
-9.435,3.298434846184559,3.286177614441645
-9.432499999999999,3.298434846184559,3.286177614441645
-9.43,3.298434846184559,3.286177614441645
-9.4275,2.361057596751603,2.083260241454191
-9.425000000000001,-0.009955445930676987,0.2260237108605871
-9.422499999999999,-0.009955445931755206,-0.02283124591476217
-9.42,-0.009955445931755206,-0.02283124591476217
-9.4175,-0.009955445931755206,-0.02283124591476217
-9.414999999999999,-0.009955445931755206,-0.02283124591476217
-9.4125,-0.009955445931755206,-0.02283124591476217
-9.41,-0.01363143514521778,-0.02283124591476217
-9.407500000000001,-0.009955445931756879,-0.02283124591476217
-9.404999999999999,-0.009955445931756879,-0.02283124591476217
-9.4025,-0.01363143514521778,-0.02283124591476217
-9.4,-0.01363143514521778,-0.02283124591476217
-9.397500000000001,-0.009955445931756879,-0.02283124591476217
-9.395,-0.009955445931755206,-0.02283124591476217
-9.3925,-0.009955445931755206,-0.02283124591476217
-9.390000000000001,-0.009955445931755206,-0.02283124591476217
-9.387499999999999,-0.009955445931756879,-0.02283124591476217
-9.385,-0.01363143514521778,-0.02283124591476217
-9.3825,-0.009955445931755206,-0.02283124591476217
-9.380000000000001,-0.009955445931755206,-0.02283124591476217
-9.3775,-0.009955445931755206,-0.02283124591476217
-9.375,-0.009955445931755206,-0.02283124591476217
-9.3725,-0.01363143514521778,-0.02283124591476217
-9.369999999999999,-0.009955445931755206,-0.02283124591476217
-9.3675,-0.009955445931755206,-0.02283124591476217
-9.365,-0.009955445931755206,-0.02283124591476217
-9.362500000000001,-0.009955445931755206,-0.02283124591476217
-9.359999999999999,-0.009955445931755206,-0.02283124591476217
-9.3575,-0.009955445931755206,-0.02283124591476217
-9.355,-0.009955445931755206,-0.02283124591476217
-9.352499999999999,-0.009955445931756879,-0.02283124591476217
-9.35,-0.01363143514521778,-0.02283124591476217
-9.3475,-0.009955445931755206,-0.02283124591476217
-9.345000000000001,-0.01363143514521611,-0.02283124591476217
-9.342499999999999,2.397817488886638,2.466628771980358
-9.34,3.298434846184559,3.228016111134201
-9.3375,3.298434846184559,3.286177614441645
-9.335000000000001,3.298434846184559,3.286177614441645
-9.3325,3.298434846184559,3.286177614441645
-9.33,3.298434846184559,3.286177614441645
-9.327500000000001,3.298434846184559,3.286177614441645
-9.324999999999999,3.298434846184559,3.286177614441645
-9.3225,3.298434846184559,3.286177614441645
-9.32,3.298434846184559,3.286177614441645
-9.317500000000001,3.298434846184559,3.286177614441645
-9.315,3.298434846184559,3.286177614441645
-9.3125,3.298434846184559,3.286177614441645
-9.31,3.298434846184559,3.286177614441645
-9.307499999999999,3.298434846184559,3.286177614441645
-9.305,3.298434846184559,3.286177614441645
-9.3025,3.298434846184559,3.286177614441645
-9.300000000000001,3.298434846184559,3.286177614441645
-9.297499999999999,3.298434846184559,3.286177614441645
-9.295,3.298434846184559,3.286177614441645
-9.2925,3.298434846184559,3.286177614441645
-9.289999999999999,3.298434846184559,3.286177614441645
-9.2875,3.298434846184559,3.286177614441645
-9.285,3.298434846184559,3.286177614441645
-9.282500000000001,3.298434846184559,3.286177614441645
-9.279999999999999,3.298434846184559,3.286177614441645
-9.2775,3.298434846184559,3.286177614441645
-9.275,3.298434846184559,3.286177614441645
