d8/1.prinsipell/samenligning av delay ved n=16/g(16,32)/offeset g(16,32) på channel 2, IT WORK!!!.csv

#Digilent WaveForms Oscilloscope Acquisition
#Device Name: Discovery2
#Serial Number: SN:210321B219AA
#Date Time: 2023-11-07 13:14:03.280
#Sample rate: 8000Hz
#Samples: 8192
#Trigger: Source: Channel 1 Type: Edge Condition: Rising Level: 0 V Hyst.: Auto HoldOff: 0 s
#Channel 1: Range: 1 V/div Offset: 0 V Attenuation: 1 X Sample Mode: Average
#Channel 2: Range: 1 V/div Offset: 500 mV Attenuation: 1 X Shift: 83.88608 ms Sample Mode: Average

Time (s),Channel 1 (V),Channel 2 (V)
-0.512,3.298434846184559,3.286177614441645
-0.511875,3.298434846184559,3.286177614441645
-0.51175,3.298434846184559,3.286177614441645
-0.511625,3.298434846184559,3.286177614441645
-0.5115,3.298434846184559,3.286177614441645
-0.511375,3.298434846184559,3.286177614441645
-0.51125,3.298434846184559,3.286177614441645
-0.5111250000000001,3.298434846184559,3.286177614441645
-0.511,3.298434846184559,3.286177614441645
-0.510875,3.298434846184559,3.286177614441645
-0.51075,3.298434846184559,3.286177614441645
-0.510625,3.298434846184559,3.286177614441645
-0.5105,3.298434846184559,3.286177614441645
-0.510375,3.298434846184559,3.286177614441645
-0.51025,3.298434846184559,3.286177614441645
-0.5101250000000001,3.298434846184559,3.286177614441645
-0.51,3.298434846184559,3.286177614441645
-0.509875,3.298434846184559,3.286177614441645
-0.50975,3.298434846184559,3.286177614441645
-0.509625,3.298434846184559,3.286177614441645
-0.5095,3.298434846184559,3.286177614441645
-0.509375,3.298434846184559,3.286177614441645
-0.50925,3.298434846184559,3.286177614441645
-0.509125,3.298434846184559,3.286177614441645
-0.509,3.298434846184559,3.286177614441645
-0.508875,3.298434846184559,3.286177614441645
-0.50875,3.298434846184559,3.286177614441645
-0.508625,3.298434846184559,3.067176771963494
-0.5085,0.5598228821546841,0.7411905370081115
-0.508375,-0.009955445931755206,-0.02283124591476217
-0.50825,-0.009955445931755206,-0.02250389039536284
-0.508125,-0.009955445931755206,-0.01946551118822633
-0.508,-0.01363143514521778,-0.02250389039536284
-0.507875,-0.01363143514521778,-0.01946551118822801
-0.50775,-0.01363143514521778,-0.02250389039536452
-0.507625,-0.009955445931755206,-0.01946551118822801
-0.5075,-0.009955445931755206,-0.02283124591476217
-0.507375,-0.009955445931755206,-0.02283124591476217
-0.50725,-0.009955445931755206,-0.02283124591476217
-0.507125,-0.009955445931755206,-0.02283124591476217
-0.507,-0.01363143514521778,-0.02283124591476217
-0.506875,-0.009955445931755206,-0.02283124591476217
-0.50675,-0.009955445931755206,-0.02283124591476217
-0.506625,-0.009955445931755206,-0.02283124591476217
-0.5065,-0.009955445931756879,-0.02283124591476217
-0.506375,-0.01363143514521778,-0.02283124591476217
-0.50625,-0.01363143514521778,-0.02283124591476217
-0.506125,-0.009955445931756879,-0.02283124591476217
-0.506,-0.009955445931755206,0.2046808400677704
-0.505875,2.824232237648104,2.609664934408278
-0.50575,3.302110835397804,3.286177614441645
-0.505625,3.298434846184559,3.286177614441645
-0.5054999999999999,3.298434846184559,3.286177614441645
-0.505375,3.298434846184559,3.286177614441645
-0.50525,3.298434846184559,3.286177614441645
-0.505125,3.298434846184559,3.286177614441645
-0.505,3.298434846184559,3.286177614441645
-0.504875,3.298434846184559,3.286177614441645
-0.50475,3.298434846184559,3.286177614441645
-0.504625,3.302110835398021,3.286177614441645
-0.5044999999999999,3.298434846184559,3.286177614441645
-0.504375,3.298434846184559,3.286177614441645
-0.50425,3.298434846184559,3.286177614441645
-0.504125,3.298434846184559,3.286177614441645
-0.504,3.298434846184559,3.286177614441645
-0.503875,3.298434846184559,3.286177614441645
-0.50375,3.298434846184559,3.286177614441645
-0.503625,3.298434846184559,3.286177614441645
-0.5034999999999999,3.298434846184559,3.286177614441645
-0.503375,3.298434846184559,3.05015428495594
-0.50325,0.3686714430548896,0.5661723312287162
-0.503125,-0.01363143514504389,-0.02283124591476217
-0.503,-0.009955445931755206,-0.02283124591476217
-0.502875,-0.009955445931755206,-0.02283124591476217
-0.50275,-0.009955445931755206,-0.02283124591476217
-0.502625,-0.009955445931755206,-0.02283124591476217
-0.5024999999999999,-0.01363143514521611,-0.02283124591476217
-0.502375,-0.009955445931755206,-0.02283124591476217
-0.50225,-0.009955445931755206,-0.02283124591476217
-0.502125,-0.009955445931755206,-0.02283124591476217
-0.502,-0.009955445931755206,-0.02250389039536284
-0.501875,-0.01363143514521778,-0.01946551118822801
-0.50175,-0.01363143514521778,-0.02283124591476217
-0.501625,-0.01363143514521778,-0.02283124591476217
-0.5014999999999999,-0.009955445931755206,-0.02283124591476217
-0.501375,-0.009955445931755206,-0.02283124591476217
-0.50125,-0.01363143514521778,-0.02283124591476217
-0.501125,-0.01363143514521778,-0.02283124591476217
-0.501,-0.009955445931755206,-0.02283124591476217
-0.500875,-0.009955445931755206,-0.02250389039536284
-0.50075,-0.009955445931755206,0.2250690618018167
-0.500625,3.015383676747941,2.784683140188054
-0.5004999999999999,3.298434846184559,3.286177614441645
-0.500375,3.298434846184559,3.286177614441645
-0.50025,3.298434846184559,3.286177614441645
-0.500125,3.298434846184559,3.286177614441645
-0.5,3.298434846184559,3.286177614441645
-0.499875,3.298434846184559,3.286177614441645
-0.49975,3.298434846184559,3.286177614441645
-0.499625,3.298434846184559,3.286177614441645
-0.4995,3.298434846184559,3.286177614441645
-0.499375,3.298434846184559,3.286177614441645
-0.49925,3.298434846184559,3.286177614441645
-0.499125,3.298434846184559,3.286177614441645
-0.499,3.298434846184559,3.286177614441645
-0.498875,3.298434846184559,3.286177614441645
-0.49875,3.298434846184559,3.286177614441645
-0.498625,3.298434846184559,3.286177614441645
-0.4985,3.298434846184559,3.286177614441645
-0.498375,3.298434846184559,3.286177614441645
-0.49825,3.298434846184559,3.286177614441645
-0.498125,3.298434846184559,3.033459153464067
-0.498,0.1775200039548359,0.394519860175474
-0.497875,-0.01363143514521778,-0.02283124591476217
-0.49775,-0.01363143514521778,-0.02283124591476217
-0.497625,-0.01363143514521778,-0.02283124591476217
-0.4975,-0.01363143514521778,-0.02283124591476217
-0.497375,-0.01363143514521778,-0.02283124591476217
-0.49725,-0.009955445931755206,-0.02283124591476217
-0.497125,-0.009955445931755206,-0.02283124591476217
-0.497,-0.009955445931755206,-0.02283124591476217
-0.496875,-0.009955445931755206,-0.02283124591476217
-0.49675,-0.009955445931755206,-0.02283124591476217
-0.496625,-0.009955445931755206,-0.02283124591476217
-0.4965,-0.009955445931755206,-0.02283124591476217
-0.496375,-0.01363143514521778,-0.02283124591476217
-0.49625,-0.01363143514521778,-0.02283124591476217
-0.496125,-0.01363143514521778,-0.02283124591476217
-0.496,-0.009955445931755206,-0.02283124591476217
-0.495875,-0.009955445931755206,-0.02283124591476217
-0.49575,-0.009955445931755206,-0.02283124591476217
-0.495625,-0.009955445931755206,-0.02283124591476217
-0.4955,-0.01363143514521778,-0.02283124591476217
-0.495375,-0.01363143514521778,-0.02283124591476217
-0.49525,-0.01363143514521778,-0.02283124591476217
-0.495125,-0.009955445931755206,-0.02283124591476217
-0.495,-0.009955445931755206,-0.02283124591476217
-0.494875,-0.009955445931755206,-0.02283124591476217
-0.49475,-0.009955445931755206,-0.02283124591476217
-0.494625,-0.009955445931755206,-0.02283124591476217
-0.4945,-0.009955445931755206,-0.02283124591476217
-0.494375,-0.009955445931755206,-0.02283124591476217
-0.49425,-0.009955445931755206,-0.02283124591476217
-0.494125,-0.01363143514521778,-0.02283124591476217
-0.494,-0.009955445931755206,-0.02283124591476217
-0.493875,-0.01363143514521778,-0.02283124591476217
-0.49375,-0.01363143514521778,-0.02283124591476217
-0.493625,-0.01363143514521778,-0.02283124591476217
-0.4935,-0.01363143514521778,-0.02283124591476217
-0.493375,-0.009955445931755206,-0.02283124591476217
-0.49325,-0.01363143514521778,-0.02283124591476217
-0.493125,-0.01363143514521778,-0.02283124591476217
-0.493,-0.01363143514521778,-0.02283124591476217
-0.492875,-0.01363143514521778,-0.02283124591476217
-0.49275,-0.01363143514521778,-0.02283124591476217
-0.492625,-0.01363143514521778,-0.02283124591476217
-0.4925,-0.01363143514521778,-0.02283124591476217
-0.492375,-0.01363143514521778,-0.02250389039536284
-0.49225,-0.01363143514521778,-0.01946551118822801
-0.492125,-0.01363143514521778,-0.02283124591476217
-0.492,-0.01363143514521778,-0.02283124591476217
-0.491875,-0.01363143514521778,-0.02283124591476217
-0.49175,-0.01363143514521778,-0.02283124591476217
-0.491625,-0.01363143514521778,-0.02283124591476217
-0.4915,-0.01363143514521778,-0.02283124591476217
-0.491375,-0.01363143514521778,-0.02283124591476217
-0.49125,-0.01363143514521778,-0.02283124591476217
-0.491125,-0.01363143514521778,-0.02283124591476217
-0.491,-0.01363143514521778,-0.02250389039536284
-0.490875,-0.01363143514521778,-0.01946551118822969
-0.49075,-0.01363143514521778,-0.02283124591476217
-0.490625,-0.01363143514521778,-0.02283124591476217
-0.4905,-0.01363143514521778,-0.02283124591476217
-0.490375,-0.01363143514521778,-0.02283124591476217
-0.49025,-0.01363143514521778,-0.02283124591476217
-0.490125,-0.01363143514521778,-0.02283124591476217
-0.49,-0.01363143514521778,-0.02283124591476217
-0.489875,-0.01363143514521778,-0.02283124591476217
-0.48975,-0.01363143514521778,-0.02283124591476217
-0.489625,-0.009955445931755206,-0.02283124591476217
-0.4895,-0.01363143514521778,-0.02283124591476217
-0.489375,-0.01363143514521778,-0.02283124591476217
-0.48925,-0.009955445931755206,-0.02283124591476217
-0.489125,-0.009955445931755206,-0.02283124591476217
-0.489,-0.009955445931755206,-0.02283124591476217
-0.488875,-0.009955445931755206,-0.02283124591476217
-0.48875,-0.01363143514521778,-0.02283124591476217
-0.488625,-0.01363143514521778,-0.02283124591476217
-0.4885,-0.009955445931755206,-0.02250389039536116
-0.488375,-0.009955445931755206,-0.01913815566882868
-0.48825,-0.009955445931755206,-0.01913815566882868
-0.488125,-0.009955445931755206,-0.01946551118822969
-0.488,-0.009955445931755206,-0.02283124591476217
-0.487875,-0.009955445931755206,-0.02283124591476217
-0.48775,-0.01363143514521778,-0.02283124591476217
-0.487625,-0.01363143514521778,-0.02283124591476217
-0.4875,-0.01363143514521778,-0.02283124591476217
-0.487375,-0.01363143514521778,-0.02283124591476217
-0.48725,-0.01363143514521778,-0.02283124591476217
-0.487125,-0.01363143514521778,-0.02283124591476217
-0.487,-0.01363143514521778,-0.02283124591476217
-0.486875,-0.01363143514521778,-0.02283124591476217
-0.48675,-0.01363143514521778,-0.02283124591476217
-0.486625,-0.009955445931755206,-0.02283124591476217
-0.4865,-0.009955445931755206,-0.02283124591476217
-0.486375,-0.009955445931755206,-0.02283124591476217
-0.48625,-0.009955445931755206,-0.02283124591476217
-0.486125,-0.01363143514521778,-0.02250389039536116
-0.486,-0.01363143514521778,-0.01946551118822801
-0.485875,-0.01363143514521778,-0.02283124591476217
-0.48575,-0.01363143514521778,-0.02283124591476217
-0.485625,-0.009955445931755206,-0.02283124591476217
-0.4855,-0.009955445931755206,-0.02283124591476217
-0.485375,-0.01363143514521778,-0.02283124591476217
-0.48525,-0.009955445931755206,-0.02283124591476217
-0.485125,-0.009955445931755206,-0.02283124591476217
-0.485,-0.009955445931755206,-0.02283124591476217
-0.484875,-0.01363143514521778,-0.02283124591476217
-0.48475,-0.01363143514521778,-0.02250389039536452
-0.484625,-0.01363143514521778,-0.01946551118822801
-0.4845,-0.01363143514521778,-0.02283124591476217
-0.484375,-0.01363143514521778,-0.02283124591476217
-0.48425,-0.009955445931755206,-0.02283124591476217
-0.484125,-0.009955445931755206,-0.02283124591476217
-0.484,-0.009955445931755206,-0.02283124591476217
-0.483875,-0.01363143514521778,-0.02283124591476217
-0.48375,-0.01363143514521778,-0.02283124591476217
-0.483625,-0.01363143514521778,-0.02283124591476217
-0.4835,-0.01363143514521778,-0.02283124591476217
-0.483375,-0.009955445931755206,-0.02283124591476217
-0.48325,-0.01363143514521778,-0.02283124591476217
-0.483125,-0.009955445931755206,-0.02283124591476217
-0.483,-0.009955445931755206,-0.02283124591476217
-0.482875,-0.009955445931755206,-0.02283124591476217
-0.48275,-0.009955445931755206,-0.02283124591476217
-0.482625,-0.009955445931755206,-0.02283124591476217
-0.4825,-0.009955445931755206,-0.01497471344913801
-0.482375,0.3502914969875768,0.3535484215396503
-0.48225,3.316814792251872,3.309737757527383
-0.482125,3.298434846184559,3.286177614441645
-0.482,3.298434846184559,3.286177614441645
-0.481875,3.298434846184559,3.286177614441645
-0.48175,3.298434846184559,3.286177614441645
-0.481625,3.298434846184559,3.286177614441645
-0.4815,3.298434846184559,3.286177614441645
-0.481375,3.298434846184559,3.286177614441645
-0.48125,3.298434846184559,3.286177614441645
-0.481125,3.298434846184559,3.286177614441645
-0.481,3.298434846184559,3.286177614441645
-0.480875,3.298434846184559,3.286177614441645
-0.48075,3.298434846184559,3.286177614441645
-0.480625,3.298434846184559,3.286177614441645
-0.4805,3.298434846184559,3.286177614441645
-0.480375,3.298434846184559,3.286177614441645
-0.48025,3.298434846184559,3.286177614441645
-0.480125,3.298434846184559,3.286177614441645
-0.48,3.298434846184559,3.286177614441645
-0.479875,3.298434846184559,3.286177614441645
-0.47975,3.298434846184559,3.286177614441645
-0.479625,3.298434846184559,3.286177614441645
-0.4795,3.298434846184559,3.286177614441645
-0.479375,3.298434846184559,3.286177614441645
-0.47925,3.298434846184559,3.286177614441645
-0.479125,3.298434846184559,3.286177614441645
-0.479,3.298434846184559,3.286177614441645
-0.478875,3.298434846184559,3.286177614441645
-0.47875,3.298434846184559,3.286177614441645
-0.478625,3.298434846184559,3.286177614441645
-0.4785,3.298434846184559,3.286177614441645
-0.478375,3.298434846184559,3.286177614441645
-0.47825,3.298434846184559,3.286177614441645
-0.478125,3.298434846184559,3.286177614441645
-0.478,3.298434846184559,3.286177614441645
-0.477875,3.298434846184559,3.286177614441645
-0.47775,3.298434846184559,3.286177614441645
-0.477625,3.298434846184559,3.286177614441645
-0.4775,3.298434846184559,3.286177614441645
-0.477375,3.298434846184559,3.286177614441645
-0.47725,3.298434846184559,3.261298594967168
-0.477125,2.74336047495171,2.735107096728242
-0.477,-0.02833539199906806,-0.04302565427396714
-0.476875,-0.009955445931755206,-0.02283124591476217
-0.47675,-0.01363143514521778,-0.02283124591476217
-0.476625,-0.009955445931755206,-0.02283124591476217
-0.4765,-0.01363143514521778,-0.02283124591476217
-0.476375,-0.01363143514521778,-0.02283124591476217
-0.47625,-0.009955445931755206,-0.02283124591476217
-0.476125,-0.009955445931755206,-0.02283124591476217
-0.476,-0.01363143514521778,-0.02283124591476217
-0.475875,-0.01363143514521778,-0.02283124591476217
-0.47575,-0.01363143514521778,-0.02283124591476217
-0.475625,-0.009955445931755206,-0.02283124591476217
-0.4755,-0.009955445931755206,-0.02250389039536116
-0.475375,-0.009955445931755206,-0.01946551118822801
-0.47525,-0.009955445931755206,-0.02283124591476217
-0.475125,-0.01363143514521778,-0.02283124591476217
-0.475,-0.01363143514521778,-0.02283124591476217
-0.474875,-0.01363143514521778,-0.02283124591476217
-0.47475,-0.009955445931755206,-0.02283124591476217
-0.474625,-0.009955445931755206,0.01088637258336855
-0.4745,0.6406946448511198,0.6191141094177918
-0.474375,3.313138803038409,3.30637202280085
-0.47425,3.298434846184559,3.286177614441645
-0.474125,3.298434846184559,3.286177614441645
-0.474,3.298434846184559,3.286177614441645
-0.473875,3.298434846184559,3.286177614441645
-0.47375,3.298434846184559,3.286177614441645
-0.473625,3.298434846184559,3.286177614441645
-0.4735,3.298434846184559,3.286177614441645
-0.473375,3.298434846184559,3.286177614441645
-0.47325,3.298434846184559,3.286177614441645
-0.473125,3.298434846184559,3.286177614441645
-0.473,3.298434846184559,3.286177614441645
-0.472875,3.298434846184559,3.286177614441645
-0.47275,3.298434846184559,3.286177614441645
-0.472625,3.298434846184559,3.286177614441645
-0.4725,3.298434846184559,3.286177614441645
-0.472375,3.298434846184559,3.286177614441645
-0.47225,3.298434846184559,3.286177614441645
-0.472125,3.298434846184559,3.286177614441645
-0.472,3.298434846184559,3.243948752439131
-0.471875,2.548533046638194,2.557050511738647
-0.47175,-0.02465940278560549,-0.03965991954743298
-0.471625,-0.01363143514521778,-0.02250389039536284
-0.4715,-0.01363143514521778,-0.01946551118822969
-0.471375,-0.01363143514521778,-0.02283124591476217
-0.47125,-0.01363143514521778,-0.02250389039536116
-0.471125,-0.009955445931755206,-0.01946551118822633
-0.471,-0.009955445931755206,-0.02250389039536284
-0.470875,-0.009955445931755206,-0.01946551118822969
-0.47075,-0.01363143514521778,-0.02283124591476217
-0.470625,-0.01363143514521778,-0.02283124591476217
-0.4705,-0.009955445931755206,-0.02283124591476217
-0.470375,-0.01363143514521778,-0.02283124591476217
-0.47025,-0.01363143514521778,-0.02283124591476217
-0.470125,-0.01363143514521778,-0.02283124591476217
-0.47,-0.01363143514521778,-0.02283124591476217
-0.469875,-0.01363143514521778,-0.02283124591476217
-0.46975,-0.009955445931755206,-0.02283124591476217
-0.469625,-0.01363143514521778,-0.02283124591476217
-0.4695,-0.01363143514521778,-0.02283124591476217
-0.469375,-0.01363143514521778,-0.02283124591476217
-0.46925,-0.01363143514521778,-0.02283124591476217
-0.469125,-0.009955445931755206,-0.02283124591476217
-0.469,-0.009955445931755206,-0.02283124591476217
-0.468875,-0.01363143514521778,-0.02283124591476217
-0.46875,-0.01363143514521778,-0.02283124591476217
-0.468625,-0.01363143514521778,-0.02283124591476217
-0.4685,-0.01363143514521778,-0.02283124591476217
-0.468375,-0.01363143514521778,-0.02283124591476217
-0.46825,-0.01363143514521778,-0.02283124591476217
-0.468125,-0.01363143514521778,-0.02283124591476217
-0.468,-0.01363143514521778,-0.02283124591476217
-0.467875,-0.01363143514521778,-0.02283124591476217
-0.46775,-0.01363143514521778,-0.02283124591476217
-0.467625,-0.01363143514521778,-0.02283124591476217
-0.4675,-0.01363143514521778,-0.02283124591476217
-0.467375,-0.01363143514521778,-0.02283124591476217
-0.46725,-0.01363143514521778,-0.02283124591476217
-0.467125,-0.01363143514521778,-0.02283124591476217
-0.467,-0.009955445931755206,-0.02250389039536284
-0.466875,-0.01363143514521778,-0.01946551118822969
-0.46675,-0.01363143514521778,0.03642010309651609
-0.466625,0.9274218035012004,0.8809867070473159
-0.4665,3.309462813824946,3.299640553347788
-0.466375,3.298434846184559,3.286177614441645
-0.46625,3.298434846184559,3.286177614441645
-0.466125,3.298434846184559,3.286177614441645
-0.466,3.298434846184559,3.286177614441645
-0.465875,3.298434846184559,3.286177614441645
-0.46575,3.298434846184559,3.286177614441645
-0.465625,3.298434846184559,3.286177614441645
-0.4655,3.298434846184559,3.286177614441645
-0.465375,3.298434846184559,3.286177614441645
-0.46525,3.298434846184559,3.286177614441645
-0.465125,3.298434846184559,3.286177614441645
-0.465,3.298434846184559,3.286177614441645
-0.464875,3.298434846184559,3.286177614441645
-0.46475,3.298434846184559,3.286177614441645
-0.464625,3.298434846184559,3.286177614441645
-0.4645,3.298434846184559,3.286177614441645
-0.464375,3.298434846184559,3.286177614441645
-0.46425,3.298434846184559,3.286177614441645
-0.464125,3.298434846184559,3.218087666406585
-0.464,2.261805887988114,2.291484823863144
-0.463875,-0.02098341357214292,-0.0362941848208921
-0.46375,-0.01363143514521778,-0.02283124591476217
-0.463625,-0.01363143514521778,-0.02283124591476217
-0.4635,-0.01363143514521778,-0.02283124591476217
-0.463375,-0.01363143514521778,-0.02283124591476217
-0.46325,-0.01363143514521778,-0.02283124591476217
-0.463125,-0.01363143514521778,-0.02283124591476217
-0.463,-0.01363143514521778,-0.02283124591476217
-0.462875,-0.01363143514521778,-0.02283124591476217
-0.46275,-0.01363143514521778,-0.02283124591476217
-0.462625,-0.01363143514521778,-0.02283124591476217
-0.4625,-0.01363143514521778,-0.02283124591476217
