d8/1.prinsipell/samenligning av delay ved n=16/g(6,32)/offeset g(6,32) på channel 2, IT WORK!!!.csv

#Digilent WaveForms Oscilloscope Acquisition
#Device Name: Discovery2
#Serial Number: SN:210321B219AA
#Date Time: 2023-11-07 13:09:51.231
#Sample rate: 7.69231e+06Hz
#Samples: 8192
#Trigger: Source: Channel 1 Type: Edge Condition: Rising Level: 0 V Hyst.: Auto HoldOff: 0 s
#Channel 1: Range: 1 V/div Offset: 0 V Attenuation: 1 X Sample Mode: Average
#Channel 2: Range: 1 V/div Offset: 1 V Attenuation: 1 X Shift: 81.92 us Sample Mode: Average

Time (s),Channel 1 (V),Channel 2 (V)
-0.00053248,-0.03936335963945577,-0.05663722585830732
-0.00053235,-0.04303934885291835,-0.06033031610424081
-0.00053222,-0.03936335963945577,-0.06345523862003055
-0.00053209,-0.0356873704259932,-0.06288707088988849
-0.0005319600000000001,-0.0356873704259932,-0.06033031610423913
-0.0005318300000000001,-0.0393633596394541,-0.06288707088988849
-0.0005317,-0.04303934885291835,-0.06033031610424081
-0.00053157,-0.04303934885291835,-0.06345523862003055
-0.00053144,-0.04303934885291835,-0.0640234063501743
-0.00053131,-0.04671533806638092,-0.06714832886596404
-0.00053118,-0.04671533806638092,-0.06601199340567991
-0.00053105,-0.04671533806638092,-0.059193980643955
-0.00053092,-0.05406731649330606,-0.05663722585830564
-0.0005307900000000001,-0.04671533806638426,-0.05976214837409707
-0.0005306600000000001,-0.04671533806638092,-0.05976214837409707
-0.00053053,-0.04671533806638092,-0.05919398064395332
-0.0005304,-0.04671533806638092,-0.05606905812816357
-0.00053027,-0.04303934885291835,-0.05606905812816357
-0.00053014,-0.04303934885291835,-0.05550089039802151
-0.00053001,-0.04671533806638092,-0.05351230334251422
-0.00052988,-0.05039132727984349,-0.05862581291381294
-0.0005297500000000001,-0.04671533806638259,-0.05351230334251422
-0.0005296200000000001,-0.04671533806638092,-0.059193980643955
-0.00052949,-0.05039132727984349,-0.05720539358845106
-0.00052936,-0.05039132727984683,-0.06288707088988681
-0.00052923,-0.05774330570676863,0.1044383256374447
-0.0005291,1.482496174734049,1.35639591900894
-0.00052897,3.287406878544171,3.277939182354554
-0.00052884,3.298434846184559,3.294700130393796
-0.0005287100000000001,3.298434846184559,3.302086310885663
-0.0005285800000000001,3.309462813824942,3.30947249137753
-0.00052845,3.320490781465334,3.3168586718694
-0.00052832,3.320490781465334,3.323108516900979
-0.00052819,3.320490781465334,3.323108516900979
-0.00052806,3.320490781465334,3.323108516900979
-0.00052793,3.320490781465334,3.323108516900979
-0.0005278,3.331518749105722,3.323108516900979
-0.00052767,3.324166770678797,3.323108516900979
-0.0005275400000000001,3.331518749105718,3.323108516900979
-0.00052741,3.331518749105722,3.322540349170835
-0.00052728,3.331518749105722,3.320551762115333
-0.00052715,3.331518749105722,3.326233439416769
-0.00052702,3.331518749105722,3.323676684631123
-0.00052689,3.327842759892259,3.325665271686629
-0.00052676,3.331518749105722,3.319415426655046
-0.00052663,3.331518749105722,3.319983594385188
-0.0005265000000000001,3.327842759892261,3.321404013710553
-0.0005263700000000001,3.327842759892259,3.311461078433036
-0.00052624,3.331518749105722,3.308336155917246
-0.00052611,3.331518749105718,3.308336155917246
-0.00052598,3.324166770678797,3.309472491377533
-0.00052585,3.327842759892259,3.315154168678968
-0.00052572,3.327842759892259,3.312029246163179
-0.00052559,3.327842759892259,3.312029246163179
-0.0005254600000000001,3.33151874910572,3.312597413893321
-0.0005253300000000001,3.327842759892261,3.315722336409112
-0.0005252,3.320490781465332,3.315722336409112
-0.00052507,3.316814792251873,3.316290504139256
-0.00052494,3.320490781465334,3.319415426655046
-0.00052481,3.316814792251872,3.318847258924902
-0.00052468,3.320490781465334,3.31515416867897
-0.00052455,3.313138803038409,3.312029246163179
-0.0005244200000000001,3.324166770678792,3.312029246163179
-0.0005242900000000001,3.320490781465336,3.312029246163179
-0.00052416,3.316814792251738,3.312029246163179
-0.00052403,3.022735655173503,2.83249568192186
-0.0005239,0.0268044462028705,0.1604028470565454
-0.00052377,-0.02465940278560549,-0.03305826505734787
-0.00052364,-0.03201138121253063,-0.05152371628700692
-0.00052351,-0.04303934885291835,-0.06714832886596404
-0.00052338,-0.05406731649330606,-0.06714832886596404
-0.0005232500000000001,-0.05774330570676696,-0.06771649659610611
-0.0005231200000000001,-0.05406731649330773,-0.07084141911189754
-0.00052299,-0.05774330570676696,-0.07140958684204128
-0.00052286,-0.05406731649330606,-0.07339817389754354
-0.00052273,-0.0614192949202312,-0.06771649659610779
-0.0005226,-0.05774330570676863,-0.0714095868420396
-0.00052247,-0.0614192949202312,-0.07396634162768896
-0.00052234,-0.0614192949202312,-0.0714095868420396
-0.0005222100000000001,-0.0577433057067703,-0.07396634162768896
-0.0005220800000000001,-0.05039132727984683,-0.07027325138175547
-0.00052195,-0.05406731649330606,-0.06714832886596404
-0.00052182,-0.05406731649330439,-0.06714832886596404
-0.00052169,-0.05039132727984349,-0.0665801611358203
-0.00052156,-0.04671533806638092,0.06097349428144916
-0.00052143,1.239880886645519,1.133390084926433
-0.0005213,3.283730889330708,3.271121169592829
-0.0005211700000000001,3.302110835398013,3.291575207878005
-0.0005210400000000001,3.316814792251865,3.300949975425379
-0.00052091,3.320490781465336,3.301518143155523
-0.00052078,3.324166770678799,3.306347568861744
-0.00052065,3.327842759892259,3.317426839599543
-0.00052052,3.327842759892259,3.326801607146913
-0.00052039,3.331518749105722,3.326233439416771
-0.00052026,3.331518749105722,3.323108516900979
-0.00052013,3.331518749105722,3.323108516900979
-0.0005200000000000001,3.331518749105722,3.323108516900979
-0.00051987,3.335194738319186,3.323676684631123
-0.00051974,3.338870727532645,3.327369774877057
-0.00051961,3.335194738319184,3.329358361932559
-0.00051948,3.335194738319184,3.323676684631123
-0.00051935,3.338870727532647,3.326233439416771
-0.00051922,3.331518749105722,3.322540349170837
-0.00051909,3.335194738319184,3.319415426655046
-0.0005189600000000001,3.331518749105724,3.037604232504582
-0.0005188300000000001,1.03402549069266,1.255830230774073
-0.0005187,-0.002603467504833408,-0.0219789943195474
-0.00051857,-0.009955445931755206,-0.03873994235878361
-0.00051844,-0.02833539199906806,-0.04612612285065059
-0.00051831,-0.0356873704259932,-0.05351230334251422
-0.00051818,-0.04303934885291835,-0.05976214837409707
-0.00051805,-0.04671533806638092,-0.06033031610423913
-0.0005179200000000001,-0.05039132727984182,-0.06288707088988849
-0.0005177900000000001,-0.05406731649330439,-0.06033031610423913
-0.00051766,-0.05406731649330439,-0.06345523862003055
-0.00051753,-0.05039132727984516,-0.06345523862003055
-0.0005174,-0.05406731649330606,-0.06288707088988681
-0.00051727,-0.05039132727984349,-0.06033031610424081
-0.00051714,-0.05406731649330606,-0.06345523862003055
-0.00051701,-0.05039132727984349,-0.06345523862003055
-0.0005168800000000001,-0.05406731649330439,-0.06345523862003055
-0.0005167500000000001,-0.04671533806638426,-0.06402340635017262
-0.00051662,-0.05406731649330439,-0.06544382567553282
-0.00051649,-0.0503913272798368,-0.05663722585830732
-0.00051636,-0.0356873704259932,0.3811360102174476
-0.00051623,3.261674954049933,2.879937687388978
-0.0005161,3.291082867757634,3.288450285362213
-0.00051597,3.305786824611484,3.302086310885663
-0.00051584,3.320490781465334,3.308904323647388
-0.0005157100000000001,3.324166770678795,3.313165581623463
-0.00051558,3.320490781465336,3.31998359438519
-0.00051545,3.3241667706788,3.322540349170835
-0.00051532,3.331518749105722,3.319415426655046
-0.00051519,3.327842759892259,3.320551762115333
-0.00051506,3.331518749105722,3.326801607146913
-0.00051493,3.324166770678797,3.327369774877055
-0.0005148,3.327842759892259,3.329926529662704
-0.0005146700000000001,3.327842759892259,3.327369774877055
-0.0005145400000000001,3.33151874910572,3.329926529662704
-0.00051441,3.327842759892258,3.326801607146913
-0.00051428,3.324166770678802,3.326801607146913
-0.00051415,3.335194738319184,3.326801607146913
-0.00051402,3.327842759892259,3.327369774877057
-0.00051389,3.331518749105722,3.329358361932562
-0.00051376,3.331518749105722,3.324813020091406
-0.0005136300000000001,3.331518749105722,3.332483284448354
-0.0005135000000000001,3.335194738319183,3.322540349170837
-0.00051337,3.327842759892259,3.31998359438519
-0.00051324,3.327842759892259,3.323676684631123
-0.00051311,3.327842759892259,3.326233439416769
-0.00051298,3.331518749105722,3.323108516900979
-0.00051285,3.324166770678797,3.322540349170837
-0.00051272,3.320490781465334,3.319983594385188
-0.0005125900000000001,3.324166770678795,3.322540349170837
-0.0005124600000000001,3.327842759892258,3.319415426655046
-0.00051233,3.327842759892258,3.31998359438519
-0.0005122,3.324166770678799,3.322540349170835
-0.00051207,3.327842759892259,3.319415426655046
-0.00051194,3.320490781465334,3.319415426655046
-0.00051181,3.320490781465334,3.318847258924904
-0.00051168,3.331518749105722,3.316858671869396
-0.00051155,3.327842759892259,3.323108516900979
-0.0005114200000000001,3.327842759892259,3.322540349170837
-0.00051129,3.324166770678797,3.318279091194758
-0.00051116,3.324166770678799,3.314870084813897
-0.00051103,3.327842759892259,3.328790194202415
-0.0005109,3.327842759892259,3.318847258924902
-0.00051077,3.320490781465334,3.316290504139254
-0.00051064,3.327842759892259,3.319415426655046
-0.00051051,3.331518749105722,3.319415426655046
-0.0005103800000000001,3.331518749105722,3.319983594385188
-0.0005102500000000001,3.331518749105722,3.323676684631121
-0.00051012,3.331518749105724,3.326233439416769
-0.00050999,3.335194738319181,3.322540349170835
-0.00050986,3.327842759892259,3.31998359438519
-0.00050973,3.327842759892259,3.323676684631123
-0.0005096,3.327842759892259,3.326233439416771
-0.00050947,3.324166770678797,3.323108516900979
-0.0005093400000000001,3.327842759892258,3.323676684631121
-0.0005092100000000001,3.320490781465338,3.326233439416771
-0.00050908,3.324166770678799,3.322540349170835
-0.00050895,3.327842759892261,3.319415426655046
-0.00050882,3.331518749105722,3.319415426655046
-0.00050869,3.324166770678797,3.319415426655046
-0.00050856,3.327842759892259,3.319983594385188
-0.00050843,3.324166770678797,3.323108516900979
-0.0005083,3.331518749105718,3.323676684631121
-0.0005081700000000001,3.335194738319183,3.326233439416771
-0.00050804,3.327842759892261,3.323108516900979
-0.00050791,3.331518749105722,3.323108516900979
-0.00050778,3.331518749105722,3.322540349170835
-0.00050765,3.331518749105722,3.319415426655046
-0.00050752,3.331518749105722,3.319415426655046
-0.00050739,3.331518749105722,3.319415426655046
-0.00050726,3.327842759892259,3.318847258924904
-0.0005071300000000001,3.327842759892259,3.316290504139254
-0.0005070000000000001,3.327842759892259,3.318847258924904
-0.00050687,3.327842759892258,3.315154168678968
-0.00050674,3.324166770678797,3.312597413893323
-0.00050661,3.324166770678797,3.314586000948825
-0.00050648,3.324166770678797,3.30947249137753
-0.00050635,3.327842759892259,3.315722336409112
-0.00050622,3.324166770678797,3.316290504139254
-0.0005060900000000001,3.327842759892258,3.318279091194761
-0.0005059600000000001,3.320490781465338,3.313733749353605
-0.00050583,3.320490781465334,3.322540349170835
-0.0005057,3.320490781465334,3.318847258924902
-0.00050557,3.320490781465334,3.315722336409112
-0.00050544,3.320490781465334,3.315154168678968
-0.00050531,3.316814792251872,3.312597413893321
-0.00050518,3.320490781465334,3.316290504139254
-0.0005050500000000001,3.316814792251873,3.318847258924904
-0.0005049200000000001,3.324166770678793,3.315722336409112
-0.00050479,3.320490781465336,3.316290504139256
-0.00050466,3.324166770678795,3.319415426655046
-0.00050453,3.320490781465334,3.319415426655046
-0.0005044,3.324166770678797,3.318847258924902
-0.00050427,3.324166770678797,3.317426839599539
-0.00050414,3.331518749105722,3.325665271686629
-0.00050401,3.324166770678797,3.319415426655046
-0.0005038800000000001,3.327842759892258,3.32055176211533
-0.00050375,3.327842759892259,3.326233439416769
-0.00050362,3.327842759892259,3.322540349170835
-0.00050349,3.327842759892259,3.31998359438519
-0.00050336,3.327842759892259,3.323108516900979
-0.00050323,3.327842759892259,3.321972181440695
-0.0005031,3.327842759892259,3.315722336409112
-0.00050297,3.327842759892259,3.316290504139254
-0.0005028400000000001,3.335194738319181,3.318847258924904
-0.0005027100000000001,3.335194738319184,3.315722336409112
-0.00050258,3.327842759892258,3.316290504139256
-0.00050245,3.324166770678797,3.318847258924902
-0.00050232,3.324166770678797,3.316290504139256
-0.00050219,3.327842759892259,3.318847258924902
-0.00050206,3.331518749105722,3.31515416867897
-0.00050193,3.327842759892259,3.312029246163179
-0.0005018000000000001,3.327842759892259,3.312597413893321
-0.0005016700000000001,3.33151874910572,3.31515416867897
-0.00050154,3.331518749105724,3.312029246163179
-0.00050141,3.335194738319184,3.312597413893323
-0.00050128,3.335194738319184,3.315722336409112
-0.00050115,3.331518749105722,3.315154168678968
-0.00050102,3.338870727532647,3.311461078433036
-0.00050089,3.338870727532647,3.310040659107672
-0.0005007600000000001,3.331518749105725,3.318847258924904
-0.0005006300000000001,3.335194738319183,3.315722336409112
-0.0005005,3.327842759892261,3.316290504139256
-0.00050037,3.33151874910572,3.319415426655046
-0.00050024,3.327842759892259,3.31998359438519
-0.00050011,3.327842759892259,3.322540349170835
-0.00049998,3.327842759892259,3.319415426655046
-0.00049985,3.331518749105722,3.319415426655046
-0.00049972,3.331518749105722,3.318847258924904
-0.0004995900000000001,3.327842759892261,3.315722336409112
-0.00049946,3.335194738319183,3.315722336409112
-0.00049933,3.33151874910572,3.315722336409112
-0.0004992,3.327842759892259,3.316290504139256
-0.00049907,3.327842759892259,3.31998359438519
-0.00049894,3.327842759892259,3.321972181440695
-0.00049881,3.327842759892259,3.316290504139254
-0.00049868,3.324166770678797,3.319415426655046
-0.0004985500000000001,3.327842759892258,3.319983594385188
-0.0004984200000000001,3.327842759892259,3.322540349170837
-0.00049829,3.338870727532642,3.318847258924902
-0.00049816,3.327842759892259,3.315722336409112
-0.00049803,3.327842759892259,3.316290504139256
-0.0004979,3.335194738319184,3.318847258924902
-0.00049777,3.335194738319184,3.315722336409112
-0.00049764,3.327842759892259,3.314586000948828
-0.0004975100000000001,3.33151874910572,3.308904323647388
-0.0004973800000000001,3.327842759892261,3.312029246163179
-0.00049725,3.331518749105722,3.311461078433035
-0.00049712,3.331518749105722,3.308904323647389
-0.00049699,3.331518749105722,3.312029246163179
-0.00049686,3.331518749105722,3.312597413893323
-0.00049673,3.327842759892259,3.316290504139254
-0.0004966,3.324166770678797,3.318847258924904
-0.00049647,3.331518749105718,3.315722336409112
-0.0004963400000000001,3.327842759892261,3.315722336409112
-0.00049621,3.331518749105718,3.315154168678968
-0.00049608,3.324166770678799,3.312029246163179
-0.00049595,3.327842759892259,3.147828772151637
-0.00049582,1.783927290237979,1.895871178780142
-0.00049569,0.001072521708632507,-0.02396758137504629
-0.00049556,-0.02098341357214292,-0.03192192959705534
-0.00049543,-0.02833539199906806,-0.04186486487457169
-0.0004953000000000001,-0.03568737042598986,-0.04612612285064723
-0.0004951700000000001,-0.043039348852915,-0.05294413561237216
-0.00049504,-0.04671533806638426,-0.0577735613185948
-0.00049491,-0.05406731649330606,-0.0665801611358203
-0.00049478,-0.05039132727984349,-0.06345523862003055
-0.00049465,-0.04671533806638092,-0.06402340635017262
-0.00049452,-0.05406731649330606,-0.06714832886596404
-0.00049439,-0.05406731649330606,-0.06714832886596404
-0.0004942600000000001,-0.04671533806638426,-0.06601199340567991
-0.0004941300000000001,-0.04671533806638092,-0.06033031610423913
-0.000494,-0.05039132727984516,-0.06288707088988681
-0.00049387,-0.05406731649330104,-0.06089848383438455
-0.00049374,-0.04303934885291835,-0.06714832886596404
-0.00049361,-0.05039132727984349,-0.0665801611358203
-0.00049348,-0.05039132727984349,-0.06345523862003055
-0.00049335,-0.05039132727984349,-0.06345523862003055
-0.0004932200000000001,-0.05039132727984349,-0.06231890315974643
-0.0004930900000000001,-0.04303934885292169,-0.05606905812816357
-0.00049296,-0.04671533806638092,-0.05720539358845106
-0.00049283,-0.04671533806638259,-0.06288707088988681
-0.0004927,-0.05039132727984349,-0.06089848383438455
-0.00049257,-0.04671533806638092,-0.0665801611358203
-0.00049244,-0.03936335963945577,-0.06345523862003055
-0.00049231,-0.0356873704259932,-0.06345523862003055
-0.00049218,-0.0356873704259932,-0.06231890315974643
-0.0004920500000000001,-0.0356873704259932,-0.05606905812816357
-0.00049192,-0.0393633596394541,-0.05550089039801983
-0.00049179,-0.0356873704259932,-0.05237596788223009
-0.00049166,-0.0356873704259932,-0.05294413561237384
-0.00049153,-0.03936335963945577,-0.05606905812816357
-0.0004914,-0.03201138121253063,-0.05606905812816357
-0.00049127,-0.0356873704259932,-0.05550089039802151
-0.00049114,-0.03201138121253063,-0.05237596788223009
-0.0004910100000000001,-0.03568737042599153,-0.05237596788223009
-0.0004908800000000001,-0.0356873704259932,-0.05294413561237216
-0.00049075,0.2730957235062185,0.4257371770337305
-0.00049062,3.254322975623033,3.108057031041629
-0.00049049,3.309462813824946,3.28845028536222
-0.00049036,3.320490781465334,3.30265447861581
-0.00049023,3.324166770678797,3.312597413893321
-0.0004901,3.331518749105722,3.316290504139254
-0.0004899700000000001,3.331518749105722,3.32055176211533
-0.0004898400000000001,3.331518749105722,3.327937942607197
-0.00048971,3.335194738319184,3.333619619908636
-0.00048958,3.335194738319184,3.329926529662703
-0.00048945,3.335194738319184,3.327369774877057
-0.00048932,3.338870727532647,3.329926529662703
-0.00048919,3.335194738319184,3.327369774877055
-0.00048906,3.338870727532647,3.329926529662704
-0.0004889300000000001,3.331518749105725,3.327369774877055
-0.0004888000000000001,3.327842759892261,3.330494697392846
-0.00048867,3.335194738319184,3.329926529662703
-0.00048854,3.335194738319181,3.326801607146913
-0.00048841,3.327842759892259,3.325665271686626
-0.00048828,3.331518749105722,3.318847258924902
-0.00048815,3.331518749105722,3.315722336409112
-0.00048802,3.331518749105722,3.315722336409112
-0.00048789,3.327842759892259,3.315722336409112
-0.00048776,3.327842759892259,3.316290504139257
-0.00048763,3.320490781465334,3.319415426655046
-0.0004875,3.324166770678797,3.31998359438519
-0.00048737,3.324166770678797,3.321404013710548
-0.00048724,3.320490781465334,3.312597413893323
-0.00048711,3.320490781465334,3.315722336409112
-0.00048698,3.320490781465334,3.316290504139254
-0.00048685,3.320490781465334,3.318847258924904
-0.00048672,3.324166770678797,3.315722336409112
-0.00048659,3.324166770678797,3.315722336409112
-0.00048646,3.324166770678797,3.315722336409112
-0.00048633,3.331518749105722,3.315722336409112
-0.0004862,3.320490781465334,3.315722336409112
-0.00048607,3.327842759892259,3.314586000948825
-0.00048594,3.324166770678797,3.308904323647388
-0.00048581,3.327842759892259,3.312029246163179
-0.00048568,3.327842759892259,3.028513548820613
-0.00048555,1.008293566197377,1.237364779543721
-0.00048542,-0.009955445931755206,-0.03873994235878361
-0.00048529,-0.02098341357214292,-0.04555795512050685
-0.00048516,-0.03201138121253063,-0.04981921309658408
-0.00048503,-0.0356873704259932,-0.0577735613185948
-0.0004849,-0.04303934885291835,-0.06714832886596404
-0.00048477,-0.04671533806638092,-0.06658016113582198
-0.00048464,-0.04671533806638092,-0.06402340635017598
-0.00048451,-0.05039132727984349,-0.06714832886596404
-0.00048438,-0.05039132727984349,-0.06714832886596404
-0.00048425,-0.05774330570676863,-0.06771649659610779
-0.00048412,-0.05406731649330606,-0.07027325138175379
-0.00048399,-0.05406731649330606,-0.06771649659610779
-0.00048386,-0.05406731649330606,-0.07027325138175547
-0.00048373,-0.05406731649330606,-0.06714832886596404
-0.0004836,-0.05406731649330606,-0.06771649659610947
